source/dhb/tb_phase_modulator.vcd
$date
  Sat Apr 27 18:08:53 2019
$end
$version
  GHDL v0
$end
$timescale
  1 fs
$end
$scope module standard $end
$upscope $end
$scope module textio $end
$upscope $end
$scope module std_logic_1164 $end
$upscope $end
$scope module numeric_std $end
$upscope $end
$scope module std_logic_textio $end
$upscope $end
$scope module std_logic_arith $end
$upscope $end
$scope module std_logic_unsigned $end
$upscope $end
$scope module dhb_pkg $end
$upscope $end
$scope module tb_phase_modulator $end
$comment jihuu is not handled $end
$var reg 1 ! modulator_clk $end
$var reg 2 " po2_dhb_pri_pwm[1:0] $end
$var reg 2 # po2_dhb_sec_pwm[1:0] $end
$var reg 1 $ si_rst_n $end
$var reg 1 % jee_testi $end
$scope module dut $end
$var reg 1 & modulator_clk $end
$var reg 1 ' si_rst_n $end
$comment ri_dhb_ctrl is not handled $end
$var reg 2 ( po2_dhb_pri_pwm[1:0] $end
$var reg 2 ) po2_dhb_sec_pwm[1:0] $end
$var reg 13 * s13_dhb_counter[12:0] $end
$var reg 1 + s_pri_pulse $end
$var reg 1 , s_sec_pulse $end
$var reg 12 - u12_phase_delay[11:0] $end
$upscope $end
$upscope $end
$enddefinitions $end
#0
0!
bUU "
bUU #
0$
U%
0&
0'
bUU (
bUU )
bUUUUUUUUUUUUU *
U+
U,
b000000000000 -
#3962000
1!
b00 "
b00 #
1&
b00 (
b00 )
b0000000000000 *
0+
1,
#7924000
0!
0&
#11886000
1!
1&
b000000000001 -
#15848000
0!
0&
#19810000
1!
1&
b000000000010 -
#23772000
0!
0&
#27734000
1!
1&
b000000000011 -
#31696000
0!
0&
#35658000
1!
1&
b000000000100 -
#39620000
0!
0&
#43582000
1!
1&
b000000000101 -
#47544000
0!
0&
#51506000
1!
1&
b000000000110 -
#55468000
0!
0&
#59430000
1!
1&
b000000000111 -
#63392000
0!
0&
#67354000
1!
1&
b000000001000 -
#71316000
0!
0&
#75278000
1!
1&
b000000001001 -
#79240000
0!
0&
#83202000
1!
1&
b000000001010 -
#87164000
0!
0&
#91126000
1!
1&
b000000001011 -
#95088000
0!
0&
#99050000
1!
1&
b000000001100 -
#100000000
1$
1'
#103012000
0!
0&
#106974000
1!
b10 "
b10 #
1&
b10 (
b10 )
b0000000000001 *
b000000001101 -
#110936000
0!
0&
#114898000
1!
b00 "
1&
b00 (
b0000000000010 *
b000000001110 -
#118860000
0!
0&
#122822000
1!
1&
b0000000000011 *
b000000001111 -
#126784000
0!
0&
#130746000
1!
1&
b0000000000100 *
b000000010000 -
#134708000
0!
0&
#138670000
1!
1&
b0000000000101 *
b000000010001 -
#142632000
0!
0&
#146594000
1!
1&
b0000000000110 *
b000000010010 -
#150556000
0!
0&
#154518000
1!
1&
b0000000000111 *
b000000010011 -
#158480000
0!
0&
#162442000
1!
1&
b0000000001000 *
b000000010100 -
#166404000
0!
0&
#170366000
1!
1&
b0000000001001 *
b000000010101 -
#174328000
0!
0&
#178290000
1!
1&
b0000000001010 *
b000000010110 -
#182252000
0!
0&
#186214000
1!
1&
b0000000001011 *
b000000010111 -
#190176000
0!
0&
#194138000
1!
1&
b0000000001100 *
b000000011000 -
#198100000
0!
0&
#202062000
1!
1&
b0000000001101 *
b000000011001 -
#206024000
0!
0&
#209986000
1!
1&
b0000000001110 *
b000000011010 -
#213948000
0!
0&
#217910000
1!
1&
b0000000001111 *
b000000011011 -
#221872000
0!
0&
#225834000
1!
1&
b0000000010000 *
b000000011100 -
#229796000
0!
0&
#233758000
1!
1&
b0000000010001 *
b000000011101 -
#237720000
0!
0&
#241682000
1!
1&
b0000000010010 *
b000000011110 -
#245644000
0!
0&
#249606000
1!
1&
b0000000010011 *
b000000011111 -
#253568000
0!
0&
#257530000
1!
1&
b0000000010100 *
b000000100000 -
#261492000
0!
0&
#265454000
1!
1&
b0000000010101 *
b000000100001 -
#269416000
0!
0&
#273378000
1!
1&
b0000000010110 *
b000000100010 -
#277340000
0!
0&
#281302000
1!
1&
b0000000010111 *
b000000100011 -
#285264000
0!
0&
#289226000
1!
1&
b0000000011000 *
b000000100100 -
#293188000
0!
0&
#297150000
1!
1&
b0000000011001 *
b000000100101 -
#301112000
0!
0&
#305074000
1!
1&
b0000000011010 *
b000000100110 -
#309036000
0!
0&
#312998000
1!
1&
b0000000011011 *
b000000100111 -
#316960000
0!
0&
#320922000
1!
1&
b0000000011100 *
b000000101000 -
#324884000
0!
0&
#328846000
1!
1&
b0000000011101 *
b000000101001 -
#332808000
0!
0&
#336770000
1!
1&
b0000000011110 *
b000000101010 -
#340732000
0!
0&
#344694000
1!
1&
b0000000011111 *
b000000101011 -
#348656000
0!
0&
#352618000
1!
1&
b0000000100000 *
b000000101100 -
#356580000
0!
0&
#360542000
1!
1&
b0000000100001 *
b000000101101 -
#364504000
0!
0&
#368466000
1!
1&
b0000000100010 *
b000000101110 -
#372428000
0!
0&
#376390000
1!
1&
b0000000100011 *
b000000101111 -
#380352000
0!
0&
#384314000
1!
1&
b0000000100100 *
b000000110000 -
#388276000
0!
0&
#392238000
1!
1&
b0000000100101 *
b000000110001 -
#396200000
0!
0&
#400162000
1!
1&
b0000000100110 *
b000000110010 -
#404124000
0!
0&
#408086000
1!
1&
b0000000100111 *
b000000110011 -
#412048000
0!
0&
#416010000
1!
1&
b0000000101000 *
b000000110100 -
#419972000
0!
0&
#423934000
1!
1&
b0000000101001 *
b000000110101 -
#427896000
0!
0&
#431858000
1!
1&
b0000000101010 *
b000000110110 -
#435820000
0!
0&
#439782000
1!
1&
b0000000101011 *
b000000110111 -
#443744000
0!
0&
#447706000
1!
1&
b0000000101100 *
b000000111000 -
#451668000
0!
0&
#455630000
1!
1&
b0000000101101 *
b000000111001 -
#459592000
0!
0&
#463554000
1!
1&
b0000000101110 *
b000000111010 -
#467516000
0!
0&
#471478000
1!
1&
b0000000101111 *
b000000111011 -
#475440000
0!
0&
#479402000
1!
1&
b0000000110000 *
b000000111100 -
#483364000
0!
0&
#487326000
1!
1&
b0000000110001 *
b000000111101 -
#491288000
0!
0&
#495250000
1!
1&
b0000000110010 *
b000000111110 -
#499212000
0!
0&
#503174000
1!
1&
b0000000110011 *
b000000111111 -
#507136000
0!
0&
#511098000
1!
1&
b0000000110100 *
b000001000000 -
#515060000
0!
0&
#519022000
1!
1&
b0000000110101 *
b000001000001 -
#522984000
0!
0&
#526946000
1!
1&
b0000000110110 *
b000001000010 -
#530908000
0!
0&
#534870000
1!
1&
b0000000110111 *
b000001000011 -
#538832000
0!
0&
#542794000
1!
1&
b0000000111000 *
b000001000100 -
#546756000
0!
0&
#550718000
1!
1&
b0000000111001 *
b000001000101 -
#554680000
0!
0&
#558642000
1!
1&
b0000000111010 *
b000001000110 -
#562604000
0!
0&
#566566000
1!
1&
b0000000111011 *
b000001000111 -
#570528000
0!
0&
#574490000
1!
b01 "
1&
b01 (
b0000000111100 *
b000001001000 -
#578452000
0!
0&
#582414000
1!
1&
b0000000111101 *
b000001001001 -
#586376000
0!
0&
#590338000
1!
1&
b0000000111110 *
b000001001010 -
#594300000
0!
0&
#598262000
1!
1&
b0000000111111 *
b000001001011 -
#602224000
0!
0&
#606186000
1!
1&
b0000001000000 *
b000001001100 -
#610148000
0!
0&
#614110000
1!
1&
b0000001000001 *
b000001001101 -
#618072000
0!
0&
#622034000
1!
1&
b0000001000010 *
b000001001110 -
#625996000
0!
0&
#629958000
1!
1&
b0000001000011 *
b000001001111 -
#633920000
0!
0&
#637882000
1!
1&
b0000001000100 *
b000001010000 -
#641844000
0!
0&
#645806000
1!
1&
b0000001000101 *
b000001010001 -
#649768000
0!
0&
#653730000
1!
1&
b0000001000110 *
b000001010010 -
#657692000
0!
0&
#661654000
1!
1&
b0000001000111 *
b000001010011 -
#665616000
0!
0&
#669578000
1!
1&
b0000001001000 *
b000001010100 -
#673540000
0!
0&
#677502000
1!
1&
b0000001001001 *
b000001010101 -
#681464000
0!
0&
#685426000
1!
1&
b0000001001010 *
b000001010110 -
#689388000
0!
0&
#693350000
1!
1&
b0000001001011 *
b000001010111 -
#697312000
0!
0&
#701274000
1!
1&
b0000001001100 *
b000001011000 -
#705236000
0!
0&
#709198000
1!
1&
b0000001001101 *
b000001011001 -
#713160000
0!
0&
#717122000
1!
1&
b0000001001110 *
b000001011010 -
#721084000
0!
0&
#725046000
1!
1&
b0000001001111 *
b000001011011 -
#729008000
0!
0&
#732970000
1!
1&
b0000001010000 *
b000001011100 -
#736932000
0!
0&
#740894000
1!
1&
b0000001010001 *
b000001011101 -
#744856000
0!
0&
#748818000
1!
1&
b0000001010010 *
b000001011110 -
#752780000
0!
0&
#756742000
1!
1&
b0000001010011 *
b000001011111 -
#760704000
0!
0&
#764666000
1!
1&
b0000001010100 *
b000001100000 -
#768628000
0!
0&
#772590000
1!
1&
b0000001010101 *
b000001100001 -
#776552000
0!
0&
#780514000
1!
1&
b0000001010110 *
b000001100010 -
#784476000
0!
0&
#788438000
1!
1&
b0000001010111 *
b000001100011 -
#792400000
0!
0&
#796362000
1!
1&
b0000001011000 *
b000001100100 -
#800324000
0!
0&
#804286000
1!
1&
b0000001011001 *
0,
b000001100101 -
#808248000
0!
0&
#812210000
1!
1&
b0000001011010 *
b000000000000 -
#816172000
0!
0&
#820134000
1!
b00 #
1&
b00 )
b0000001011011 *
#824096000
0!
0&
#828058000
1!
1&
b0000001011100 *
#832020000
0!
0&
#835982000
1!
1&
b0000001011101 *
#839944000
0!
0&
#843906000
1!
1&
b0000001011110 *
#847868000
0!
0&
#851830000
1!
1&
b0000001011111 *
#855792000
0!
0&
#859754000
1!
1&
b0000001100000 *
#863716000
0!
0&
#867678000
1!
1&
b0000001100001 *
#871640000
0!
0&
#875602000
1!
1&
b0000001100010 *
#879564000
0!
0&
#883526000
1!
1&
b0000001100011 *
#887488000
0!
0&
#891450000
1!
1&
b0000001100100 *
#895412000
0!
0&
#899374000
1!
1&
b0000001100101 *
#903336000
0!
0&
#907298000
1!
1&
b0000001100110 *
#911260000
0!
0&
#915222000
1!
1&
b0000001100111 *
#919184000
0!
0&
#923146000
1!
1&
b0000001101000 *
#927108000
0!
0&
#931070000
1!
1&
b0000001101001 *
#935032000
0!
0&
#938994000
1!
1&
b0000001101010 *
#942956000
0!
0&
#946918000
1!
1&
b0000001101011 *
#950880000
0!
0&
#954842000
1!
1&
b0000001101100 *
#958804000
0!
0&
#962766000
1!
1&
b0000001101101 *
#966728000
0!
0&
#970690000
1!
1&
b0000001101110 *
#974652000
0!
0&
#978614000
1!
1&
b0000001101111 *
#982576000
0!
0&
#986538000
1!
1&
b0000001110000 *
#990500000
0!
0&
#994462000
1!
1&
b0000001110001 *
#998424000
0!
0&
#1002386000
1!
1&
b0000001110010 *
#1006348000
0!
0&
#1010310000
1!
1&
b0000001110011 *
#1014272000
0!
0&
#1018234000
1!
1&
b0000001110100 *
#1022196000
0!
0&
#1026158000
1!
1&
b0000001110101 *
#1030120000
0!
0&
#1034082000
1!
1&
b0000001110110 *
#1038044000
0!
0&
#1042006000
1!
1&
b0000001110111 *
#1045968000
0!
0&
#1049930000
1!
1&
b0000001111000 *
#1053892000
0!
0&
#1057854000
1!
1&
b0000001111001 *
#1061816000
0!
0&
#1065778000
1!
1&
b0000001111010 *
#1069740000
0!
0&
#1073702000
1!
1&
b0000001111011 *
#1077664000
0!
0&
#1081626000
1!
1&
b0000001111100 *
#1085588000
0!
0&
#1089550000
1!
1&
b0000001111101 *
#1093512000
0!
0&
#1097474000
1!
1&
b0000001111110 *
#1101436000
0!
0&
#1105398000
1!
1&
b0000001111111 *
#1109360000
0!
0&
#1113322000
1!
1&
b0000010000000 *
#1117284000
0!
0&
#1121246000
1!
1&
b0000010000001 *
#1125208000
0!
0&
#1129170000
1!
1&
b0000010000010 *
#1133132000
0!
0&
#1137094000
1!
1&
b0000010000011 *
#1141056000
0!
0&
#1145018000
1!
1&
b0000010000100 *
#1148980000
0!
0&
#1152942000
1!
1&
b0000010000101 *
#1156904000
0!
0&
#1160866000
1!
1&
b0000010000110 *
#1164828000
0!
0&
#1168790000
1!
1&
b0000010000111 *
#1172752000
0!
0&
#1176714000
1!
1&
b0000010001000 *
#1180676000
0!
0&
#1184638000
1!
1&
b0000010001001 *
#1188600000
0!
0&
#1192562000
1!
1&
b0000010001010 *
#1196524000
0!
0&
#1200486000
1!
1&
b0000010001011 *
#1204448000
0!
0&
#1208410000
1!
1&
b0000010001100 *
#1212372000
0!
0&
#1216334000
1!
1&
b0000010001101 *
#1220296000
0!
0&
#1224258000
1!
1&
b0000010001110 *
#1228220000
0!
0&
#1232182000
1!
1&
b0000010001111 *
#1236144000
0!
0&
#1240106000
1!
1&
b0000010010000 *
#1244068000
0!
0&
#1248030000
1!
1&
b0000010010001 *
#1251992000
0!
0&
#1255954000
1!
1&
b0000010010010 *
#1259916000
0!
0&
#1263878000
1!
1&
b0000010010011 *
#1267840000
0!
0&
#1271802000
1!
1&
b0000010010100 *
#1275764000
0!
0&
#1279726000
1!
b01 #
1&
b01 )
b0000010010101 *
#1283688000
0!
0&
#1287650000
1!
1&
b0000010010110 *
#1291612000
0!
0&
#1295574000
1!
1&
b0000010010111 *
#1299536000
0!
0&
#1303498000
1!
1&
b0000010011000 *
#1307460000
0!
0&
#1311422000
1!
1&
b0000010011001 *
#1315384000
0!
0&
#1319346000
1!
1&
b0000010011010 *
#1323308000
0!
0&
#1327270000
1!
1&
b0000010011011 *
#1331232000
0!
0&
#1335194000
1!
1&
b0000010011100 *
#1339156000
0!
0&
#1343118000
1!
1&
b0000010011101 *
#1347080000
0!
0&
#1351042000
1!
1&
b0000010011110 *
#1355004000
0!
0&
#1358966000
1!
1&
b0000010011111 *
#1362928000
0!
0&
#1366890000
1!
1&
b0000010100000 *
#1370852000
0!
0&
#1374814000
1!
1&
b0000010100001 *
#1378776000
0!
0&
#1382738000
1!
1&
b0000010100010 *
#1386700000
0!
0&
#1390662000
1!
1&
b0000010100011 *
#1394624000
0!
0&
#1398586000
1!
1&
b0000010100100 *
#1402548000
0!
0&
#1406510000
1!
1&
b0000010100101 *
#1410472000
0!
0&
#1414434000
1!
1&
b0000010100110 *
#1418396000
0!
0&
#1422358000
1!
1&
b0000010100111 *
#1426320000
0!
0&
#1430282000
1!
1&
b0000010101000 *
#1434244000
0!
0&
#1438206000
1!
1&
b0000010101001 *
#1442168000
0!
0&
#1446130000
1!
1&
b0000010101010 *
#1450092000
0!
0&
#1454054000
1!
1&
b0000010101011 *
#1458016000
0!
0&
#1461978000
1!
1&
b0000010101100 *
#1465940000
0!
0&
#1469902000
1!
1&
b0000010101101 *
#1473864000
0!
0&
#1477826000
1!
1&
b0000010101110 *
#1481788000
0!
0&
#1485750000
1!
1&
b0000010101111 *
#1489712000
0!
0&
#1493674000
1!
1&
b0000010110000 *
#1497636000
0!
0&
#1501598000
1!
1&
b0000010110001 *
#1505560000
0!
0&
#1509522000
1!
1&
b0000010110010 *
#1513484000
0!
0&
#1517446000
1!
1&
b0000010110011 *
#1521408000
0!
0&
#1525370000
1!
1&
b0000010110100 *
#1529332000
0!
0&
#1533294000
1!
1&
b0000010110101 *
#1537256000
0!
0&
#1541218000
1!
1&
b0000010110110 *
#1545180000
0!
0&
#1549142000
1!
1&
b0000010110111 *
#1553104000
0!
0&
#1557066000
1!
1&
b0000010111000 *
#1561028000
0!
0&
#1564990000
1!
1&
b0000010111001 *
#1568952000
0!
0&
#1572914000
1!
1&
b0000010111010 *
#1576876000
0!
0&
#1580838000
1!
1&
b0000010111011 *
#1584800000
0!
0&
#1588762000
1!
1&
b0000010111100 *
#1592724000
0!
0&
#1596686000
1!
1&
b0000010111101 *
#1600648000
0!
0&
#1604610000
1!
1&
b0000010111110 *
#1608572000
0!
0&
#1612534000
1!
1&
b0000010111111 *
#1616496000
0!
0&
#1620458000
1!
1&
b0000011000000 *
#1624420000
0!
0&
#1628382000
1!
1&
b0000011000001 *
#1632344000
0!
0&
#1636306000
1!
1&
b0000011000010 *
#1640268000
0!
0&
#1644230000
1!
1&
b0000011000011 *
#1648192000
0!
0&
#1652154000
1!
1&
b0000011000100 *
#1656116000
0!
0&
#1660078000
1!
1&
b0000011000101 *
#1664040000
0!
0&
#1668002000
1!
1&
b0000011000110 *
#1671964000
0!
0&
#1675926000
1!
1&
b0000011000111 *
#1679888000
0!
0&
#1683850000
1!
1&
b0000011001000 *
#1687812000
0!
0&
#1691774000
1!
1&
b0000011001001 *
#1695736000
0!
0&
#1699698000
1!
1&
b0000011001010 *
#1703660000
0!
0&
#1707622000
1!
1&
b0000011001011 *
#1711584000
0!
0&
#1715546000
1!
1&
b0000011001100 *
#1719508000
0!
0&
#1723470000
1!
1&
b0000011001101 *
#1727432000
0!
0&
#1731394000
1!
1&
b0000011001110 *
#1735356000
0!
0&
#1739318000
1!
1&
b0000011001111 *
#1743280000
0!
0&
#1747242000
1!
1&
b0000011010000 *
#1751204000
0!
0&
#1755166000
1!
1&
b0000011010001 *
#1759128000
0!
0&
#1763090000
1!
1&
b0000011010010 *
#1767052000
0!
0&
#1771014000
1!
1&
b0000011010011 *
#1774976000
0!
0&
#1778938000
1!
1&
b0000011010100 *
#1782900000
0!
0&
#1786862000
1!
1&
b0000011010101 *
#1790824000
0!
0&
#1794786000
1!
1&
b0000011010110 *
#1798748000
0!
0&
#1802710000
1!
1&
b0000011010111 *
#1806672000
0!
0&
#1810634000
1!
1&
b0000011011000 *
#1814596000
0!
0&
#1818558000
1!
1&
b0000011011001 *
#1822520000
0!
0&
#1826482000
1!
1&
b0000011011010 *
#1830444000
0!
0&
#1834406000
1!
1&
b0000011011011 *
#1838368000
0!
0&
#1842330000
1!
1&
b0000011011100 *
#1846292000
0!
0&
#1850254000
1!
1&
b0000011011101 *
#1854216000
0!
0&
#1858178000
1!
1&
b0000011011110 *
#1862140000
0!
0&
#1866102000
1!
1&
b0000011011111 *
#1870064000
0!
0&
#1874026000
1!
1&
b0000011100000 *
#1877988000
0!
0&
#1881950000
1!
1&
b0000011100001 *
#1885912000
0!
0&
#1889874000
1!
1&
b0000011100010 *
#1893836000
0!
0&
#1897798000
1!
1&
b0000011100011 *
#1901760000
0!
0&
#1905722000
1!
1&
b0000011100100 *
#1909684000
0!
0&
#1913646000
1!
1&
b0000011100101 *
#1917608000
0!
0&
#1921570000
1!
1&
b0000011100110 *
#1925532000
0!
0&
#1929494000
1!
1&
b0000011100111 *
#1933456000
0!
0&
#1937418000
1!
1&
b0000011101000 *
#1941380000
0!
0&
#1945342000
1!
1&
b0000011101001 *
#1949304000
0!
0&
#1953266000
1!
1&
b0000011101010 *
#1957228000
0!
0&
#1961190000
1!
1&
b0000011101011 *
#1965152000
0!
0&
#1969114000
1!
1&
b0000011101100 *
#1973076000
0!
0&
#1977038000
1!
1&
b0000011101101 *
#1981000000
0!
0&
#1984962000
1!
1&
b0000011101110 *
#1988924000
0!
0&
#1992886000
1!
1&
b0000011101111 *
#1996848000
0!
0&
#2000810000
1!
1&
b0000011110000 *
#2004772000
0!
0&
#2008734000
1!
1&
b0000011110001 *
#2012696000
0!
0&
#2016658000
1!
1&
b0000011110010 *
#2020620000
0!
0&
#2024582000
1!
1&
b0000011110011 *
#2028544000
0!
0&
#2032506000
1!
1&
b0000011110100 *
#2036468000
0!
0&
#2040430000
1!
1&
b0000011110101 *
#2044392000
0!
0&
#2048354000
1!
1&
b0000011110110 *
#2052316000
0!
0&
#2056278000
1!
1&
b0000011110111 *
#2060240000
0!
0&
#2064202000
1!
1&
b0000011111000 *
#2068164000
0!
0&
#2072126000
1!
1&
b0000011111001 *
#2076088000
0!
0&
#2080050000
1!
1&
b0000011111010 *
#2084012000
0!
0&
#2087974000
1!
1&
b0000011111011 *
#2091936000
0!
0&
#2095898000
1!
1&
b0000011111100 *
#2099860000
0!
0&
#2103822000
1!
1&
b0000011111101 *
#2107784000
0!
0&
#2111746000
1!
1&
b0000011111110 *
#2115708000
0!
0&
#2119670000
1!
1&
b0000011111111 *
#2123632000
0!
0&
#2127594000
1!
1&
b0000100000000 *
#2131556000
0!
0&
#2135518000
1!
1&
b0000100000001 *
#2139480000
0!
0&
#2143442000
1!
1&
b0000100000010 *
#2147404000
0!
0&
#2151366000
1!
1&
b0000100000011 *
#2155328000
0!
0&
#2159290000
1!
1&
b0000100000100 *
#2163252000
0!
0&
#2167214000
1!
1&
b0000100000101 *
#2171176000
0!
0&
#2175138000
1!
1&
b0000100000110 *
#2179100000
0!
0&
#2183062000
1!
1&
b0000100000111 *
#2187024000
0!
0&
#2190986000
1!
1&
b0000100001000 *
#2194948000
0!
0&
#2198910000
1!
1&
b0000100001001 *
#2202872000
0!
0&
#2206834000
1!
1&
b0000100001010 *
#2210796000
0!
0&
#2214758000
1!
1&
b0000100001011 *
#2218720000
0!
0&
#2222682000
1!
1&
b0000100001100 *
#2226644000
0!
0&
#2230606000
1!
1&
b0000100001101 *
#2234568000
0!
0&
#2238530000
1!
1&
b0000100001110 *
#2242492000
0!
0&
#2246454000
1!
1&
b0000100001111 *
#2250416000
0!
0&
#2254378000
1!
1&
b0000100010000 *
#2258340000
0!
0&
#2262302000
1!
1&
b0000100010001 *
#2266264000
0!
0&
#2270226000
1!
1&
b0000100010010 *
#2274188000
0!
0&
#2278150000
1!
1&
b0000100010011 *
#2282112000
0!
0&
#2286074000
1!
1&
b0000100010100 *
#2290036000
0!
0&
#2293998000
1!
1&
b0000100010101 *
#2297960000
0!
0&
#2301922000
1!
1&
b0000100010110 *
#2305884000
0!
0&
#2309846000
1!
1&
b0000100010111 *
#2313808000
0!
0&
#2317770000
1!
1&
b0000100011000 *
#2321732000
0!
0&
#2325694000
1!
1&
b0000100011001 *
#2329656000
0!
0&
#2333618000
1!
1&
b0000100011010 *
#2337580000
0!
0&
#2341542000
1!
1&
b0000100011011 *
#2345504000
0!
0&
#2349466000
1!
1&
b0000100011100 *
#2353428000
0!
0&
#2357390000
1!
1&
b0000100011101 *
#2361352000
0!
0&
#2365314000
1!
1&
b0000100011110 *
#2369276000
0!
0&
#2373238000
1!
1&
b0000100011111 *
#2377200000
0!
0&
#2381162000
1!
1&
b0000100100000 *
#2385124000
0!
0&
#2389086000
1!
1&
b0000100100001 *
#2393048000
0!
0&
#2397010000
1!
1&
b0000100100010 *
#2400972000
0!
0&
#2404934000
1!
1&
b0000100100011 *
#2408896000
0!
0&
#2412858000
1!
1&
b0000100100100 *
#2416820000
0!
0&
#2420782000
1!
1&
b0000100100101 *
#2424744000
0!
0&
#2428706000
1!
1&
b0000100100110 *
#2432668000
0!
0&
#2436630000
1!
1&
b0000100100111 *
#2440592000
0!
0&
#2444554000
1!
1&
b0000100101000 *
#2448516000
0!
0&
#2452478000
1!
1&
b0000100101001 *
#2456440000
0!
0&
#2460402000
1!
1&
b0000100101010 *
#2464364000
0!
0&
#2468326000
1!
1&
b0000100101011 *
#2472288000
0!
0&
#2476250000
1!
1&
b0000100101100 *
#2480212000
0!
0&
#2484174000
1!
1&
b0000100101101 *
#2488136000
0!
0&
#2492098000
1!
1&
b0000100101110 *
#2496060000
0!
0&
#2500022000
1!
1&
b0000100101111 *
#2503984000
0!
0&
#2507946000
1!
1&
b0000100110000 *
#2511908000
0!
0&
#2515870000
1!
1&
b0000100110001 *
#2519832000
0!
0&
#2523794000
1!
1&
b0000100110010 *
#2527756000
0!
0&
#2531718000
1!
1&
b0000100110011 *
#2535680000
0!
0&
#2539642000
1!
1&
b0000100110100 *
#2543604000
0!
0&
#2547566000
1!
1&
b0000100110101 *
#2551528000
0!
0&
#2555490000
1!
1&
b0000100110110 *
#2559452000
0!
0&
#2563414000
1!
1&
b0000100110111 *
#2567376000
0!
0&
#2571338000
1!
1&
b0000100111000 *
#2575300000
0!
0&
#2579262000
1!
1&
b0000100111001 *
#2583224000
0!
0&
#2587186000
1!
1&
b0000100111010 *
#2591148000
0!
0&
#2595110000
1!
1&
b0000100111011 *
#2599072000
0!
0&
#2603034000
1!
1&
b0000100111100 *
#2606996000
0!
0&
#2610958000
1!
1&
b0000100111101 *
#2614920000
0!
0&
#2618882000
1!
1&
b0000100111110 *
#2622844000
0!
0&
#2626806000
1!
1&
b0000100111111 *
#2630768000
0!
0&
#2634730000
1!
1&
b0000101000000 *
#2638692000
0!
0&
#2642654000
1!
1&
b0000101000001 *
#2646616000
0!
0&
#2650578000
1!
1&
b0000101000010 *
#2654540000
0!
0&
#2658502000
1!
1&
b0000101000011 *
#2662464000
0!
0&
#2666426000
1!
1&
b0000101000100 *
#2670388000
0!
0&
#2674350000
1!
1&
b0000101000101 *
#2678312000
0!
0&
#2682274000
1!
1&
b0000101000110 *
#2686236000
0!
0&
#2690198000
1!
1&
b0000101000111 *
#2694160000
0!
0&
#2698122000
1!
1&
b0000101001000 *
#2702084000
0!
0&
#2706046000
1!
1&
b0000101001001 *
#2710008000
0!
0&
#2713970000
1!
1&
b0000101001010 *
#2717932000
0!
0&
#2721894000
1!
1&
b0000101001011 *
#2725856000
0!
0&
#2729818000
1!
1&
b0000101001100 *
#2733780000
0!
0&
#2737742000
1!
1&
b0000101001101 *
#2741704000
0!
0&
#2745666000
1!
1&
b0000101001110 *
#2749628000
0!
0&
#2753590000
1!
1&
b0000101001111 *
#2757552000
0!
0&
#2761514000
1!
1&
b0000101010000 *
#2765476000
0!
0&
#2769438000
1!
1&
b0000101010001 *
#2773400000
0!
0&
#2777362000
1!
1&
b0000101010010 *
#2781324000
0!
0&
#2785286000
1!
1&
b0000101010011 *
#2789248000
0!
0&
#2793210000
1!
1&
b0000101010100 *
#2797172000
0!
0&
#2801134000
1!
1&
b0000101010101 *
#2805096000
0!
0&
#2809058000
1!
1&
b0000101010110 *
#2813020000
0!
0&
#2816982000
1!
1&
b0000101010111 *
#2820944000
0!
0&
#2824906000
1!
1&
b0000101011000 *
#2828868000
0!
0&
#2832830000
1!
1&
b0000101011001 *
#2836792000
0!
0&
#2840754000
1!
1&
b0000101011010 *
#2844716000
0!
0&
#2848678000
1!
1&
b0000101011011 *
#2852640000
0!
0&
#2856602000
1!
1&
b0000101011100 *
#2860564000
0!
0&
#2864526000
1!
1&
b0000101011101 *
#2868488000
0!
0&
#2872450000
1!
1&
b0000101011110 *
#2876412000
0!
0&
#2880374000
1!
1&
b0000101011111 *
#2884336000
0!
0&
#2888298000
1!
1&
b0000101100000 *
#2892260000
0!
0&
#2896222000
1!
1&
b0000101100001 *
#2900184000
0!
0&
#2904146000
1!
1&
b0000101100010 *
#2908108000
0!
0&
#2912070000
1!
1&
b0000101100011 *
#2916032000
0!
0&
#2919994000
1!
1&
b0000101100100 *
#2923956000
0!
0&
#2927918000
1!
1&
b0000101100101 *
#2931880000
0!
0&
#2935842000
1!
1&
b0000101100110 *
#2939804000
0!
0&
#2943766000
1!
1&
b0000101100111 *
#2947728000
0!
0&
#2951690000
1!
1&
b0000101101000 *
#2955652000
0!
0&
#2959614000
1!
1&
b0000101101001 *
#2963576000
0!
0&
#2967538000
1!
1&
b0000101101010 *
#2971500000
0!
0&
#2975462000
1!
1&
b0000101101011 *
#2979424000
0!
0&
#2983386000
1!
1&
b0000101101100 *
#2987348000
0!
0&
#2991310000
1!
1&
b0000101101101 *
#2995272000
0!
0&
#2999234000
1!
1&
b0000101101110 *
#3003196000
0!
0&
#3007158000
1!
1&
b0000101101111 *
#3011120000
0!
0&
#3015082000
1!
1&
b0000101110000 *
#3019044000
0!
0&
#3023006000
1!
1&
b0000101110001 *
#3026968000
0!
0&
#3030930000
1!
1&
b0000101110010 *
#3034892000
0!
0&
#3038854000
1!
1&
b0000101110011 *
#3042816000
0!
0&
#3046778000
1!
1&
b0000101110100 *
#3050740000
0!
0&
#3054702000
1!
1&
b0000101110101 *
#3058664000
0!
0&
#3062626000
1!
1&
b0000101110110 *
#3066588000
0!
0&
#3070550000
1!
1&
b0000101110111 *
#3074512000
0!
0&
#3078474000
1!
1&
b0000101111000 *
#3082436000
0!
0&
#3086398000
1!
1&
b0000101111001 *
#3090360000
0!
0&
#3094322000
1!
1&
b0000101111010 *
#3098284000
0!
0&
#3102246000
1!
1&
b0000101111011 *
#3106208000
0!
0&
#3110170000
1!
1&
b0000101111100 *
#3114132000
0!
0&
#3118094000
1!
1&
b0000101111101 *
#3122056000
0!
0&
#3126018000
1!
1&
b0000101111110 *
#3129980000
0!
0&
#3133942000
1!
1&
b0000101111111 *
#3137904000
0!
0&
#3141866000
1!
1&
b0000110000000 *
#3145828000
0!
0&
#3149790000
1!
1&
b0000110000001 *
#3153752000
0!
0&
#3157714000
1!
1&
b0000110000010 *
#3161676000
0!
0&
#3165638000
1!
1&
b0000110000011 *
#3169600000
0!
0&
#3173562000
1!
1&
b0000110000100 *
#3177524000
0!
0&
#3181486000
1!
1&
b0000110000101 *
#3185448000
0!
0&
#3189410000
1!
1&
b0000110000110 *
#3193372000
0!
0&
#3197334000
1!
1&
b0000110000111 *
#3201296000
0!
0&
#3205258000
1!
1&
b0000110001000 *
#3209220000
0!
0&
#3213182000
1!
1&
b0000110001001 *
#3217144000
0!
0&
#3221106000
1!
1&
b0000110001010 *
#3225068000
0!
0&
#3229030000
1!
1&
b0000110001011 *
#3232992000
0!
0&
#3236954000
1!
1&
b0000110001100 *
#3240916000
0!
0&
#3244878000
1!
1&
b0000110001101 *
#3248840000
0!
0&
#3252802000
1!
1&
b0000110001110 *
#3256764000
0!
0&
#3260726000
1!
1&
b0000110001111 *
#3264688000
0!
0&
#3268650000
1!
1&
b0000110010000 *
#3272612000
0!
0&
#3276574000
1!
1&
b0000110010001 *
#3280536000
0!
0&
#3284498000
1!
1&
b0000110010010 *
#3288460000
0!
0&
#3292422000
1!
1&
b0000110010011 *
#3296384000
0!
0&
#3300346000
1!
1&
b0000110010100 *
#3304308000
0!
0&
