source/ext_ad/spi3w_ads7056_driver_tb.vcd
$date
  Mon May 27 21:08:47 2019
$end
$version
  GHDL v0
$end
$timescale
  1 fs
$end
$scope module standard $end
$upscope $end
$scope module textio $end
$upscope $end
$scope module std_logic_1164 $end
$upscope $end
$scope module numeric_std $end
$upscope $end
$scope module std_logic_textio $end
$upscope $end
$scope module std_logic_arith $end
$upscope $end
$scope module std_logic_unsigned $end
$upscope $end
$scope module spi3w_ads7056_driver_tb $end
$var reg 1 ! so_spi_rdy $end
$var reg 1 " s_spi_busy $end
$var reg 1 # si_spi_start $end
$var reg 1 $ si_spi_clk $end
$var reg 16 % b_spi_rx[15:0] $end
$var reg 1 & so_sh_rdy $end
$var reg 1 ' po_spi_clk_out $end
$var reg 1 ( pi_spi_serial $end
$var reg 1 ) po_spi_cs $end
$scope module dut $end
$var reg 1 * si_spi_clk $end
$var reg 1 + si_pll_lock $end
$var reg 1 , po_spi_cs $end
$var reg 1 - po_spi_clk_out $end
$var reg 1 . pi_spi_serial $end
$var reg 1 / si_spi_start $end
$var reg 1 0 s_spi_busy $end
$var reg 1 1 so_spi_rdy $end
$var reg 1 2 so_sh_rdy $end
$var reg 16 3 b_spi_rx[15:0] $end
$var reg 4 4 clock_count[3:0] $end
$var reg 18 5 spi_rx_buffer[17:0] $end
$var integer 32 6 i $end
$comment st_ad_states is not handled $end
$upscope $end
$upscope $end
$enddefinitions $end
#0
U!
U"
0#
0$
bUUUUUUUUUUUUUUUU %
U&
U'
1(
U)
0*
1+
U,
U-
1.
0/
U0
U1
U2
bUUUUUUUUUUUUUUUU 3
bUUUU 4
bUUUUUUUUUUUUUUUUUU 5
b0 6
#7812500
0!
0"
1$
0&
1'
1)
1*
1,
1-
00
01
02
#15625000
0$
0*
#23437500
1$
b0000000000000000 %
1*
b0000000000000000 3
b000000000000000000 5
b10011 6
#31250000
0$
0*
#39062500
1$
1*
#46875000
0$
0*
#50000000
1#
1/
#54687500
1"
1$
0'
0)
1*
0,
0-
10
#60000000
0#
0/
#62500000
0$
0*
#70312500
1$
b1000000000000000 %
1'
1*
1-
b1000000000000000 3
b100000000000000000 5
b10010 6
#78125000
0$
0*
#85937500
1$
0'
1*
0-
#93750000
0$
0*
#101562500
1$
b1100000000000000 %
1'
1*
1-
b1100000000000000 3
b110000000000000000 5
b10001 6
#109375000
0$
0*
#117187500
1$
0'
1*
0-
#125000000
0$
0*
#132812500
1$
b1110000000000000 %
1'
1*
1-
b1110000000000000 3
b111000000000000000 5
b10000 6
#140625000
0$
0*
#148437500
1$
0'
1*
0-
#156250000
0$
0*
#164062500
1$
b1111000000000000 %
1'
1*
1-
b1111000000000000 3
b111100000000000000 5
b1111 6
#171875000
0$
0*
#179687500
1$
0'
1*
0-
#187500000
0$
0*
#195312500
1$
b1111100000000000 %
1'
1*
1-
b1111100000000000 3
b111110000000000000 5
b1110 6
#203125000
0$
0*
#210937500
1$
0'
1*
0-
#218750000
0$
0*
#226562500
1$
b1111110000000000 %
1'
1*
1-
b1111110000000000 3
b111111000000000000 5
b1101 6
#234375000
0$
0*
#242187500
1$
0'
1*
0-
#250000000
0$
0*
#257812500
1$
b1111111000000000 %
1'
1*
1-
b1111111000000000 3
b111111100000000000 5
b1100 6
#265625000
0$
0*
#273437500
1$
0'
1*
0-
#281250000
0$
0*
#289062500
1$
b1111111100000000 %
1'
1*
1-
b1111111100000000 3
b111111110000000000 5
b1011 6
#296875000
0$
0*
#304687500
1$
0'
1*
0-
#312500000
0$
0*
#320312500
1$
b1111111110000000 %
1'
1*
1-
b1111111110000000 3
b111111111000000000 5
b1010 6
#328125000
0$
0*
#335937500
1$
1&
0'
1*
0-
12
#343750000
0$
0*
#351562500
1$
b1111111111000000 %
0&
1'
1*
1-
02
b1111111111000000 3
b111111111100000000 5
b1001 6
#359375000
0$
0*
#367187500
1$
0'
1*
0-
#375000000
0$
0*
#382812500
1$
b1111111111100000 %
1'
1*
1-
b1111111111100000 3
b111111111110000000 5
b1000 6
#390625000
0$
0*
#398437500
1$
0'
1*
0-
#406250000
0$
0*
#414062500
1$
b1111111111110000 %
1'
1*
1-
b1111111111110000 3
b111111111111000000 5
b111 6
#421875000
0$
0*
#429687500
1$
0'
1*
0-
#437500000
0$
0*
#445312500
1$
b1111111111111000 %
1'
1*
1-
b1111111111111000 3
b111111111111100000 5
b110 6
#453125000
0$
0*
#460937500
1$
0'
1*
0-
#468750000
0$
0*
#476562500
1$
b1111111111111100 %
1'
1*
1-
b1111111111111100 3
b111111111111110000 5
b101 6
#484375000
0$
0*
#492187500
1$
0'
1*
0-
#500000000
0$
0*
#507812500
1$
b1111111111111110 %
1'
1*
1-
b1111111111111110 3
b111111111111111000 5
b100 6
#515625000
0$
0*
#523437500
1$
0'
1*
0-
#531250000
0$
0*
#539062500
1$
b1111111111111111 %
1'
1*
1-
b1111111111111111 3
b111111111111111100 5
b11 6
#546875000
0$
0*
#554687500
1$
0'
1*
0-
#560000000
1#
1/
#562500000
0$
0*
#570000000
0#
0/
#570312500
1$
1'
1*
1-
b111111111111111110 5
b10 6
#578125000
0$
0*
#585937500
1$
0'
1*
0-
#593750000
0$
0*
#601562500
1!
0"
1$
1'
1)
1*
1,
1-
00
11
b111111111111111111 5
b1 6
#609375000
0$
0*
#617187500
0!
1$
b0000000000000000 %
1*
01
b0000000000000000 3
b000000000000000000 5
b10011 6
