source/ext_ad/spi3w_ads7056_driver_tb.vcd
$date
  Sat May 18 08:28:35 2019
$end
$version
  GHDL v0
$end
$timescale
  1 fs
$end
$scope module standard $end
$upscope $end
$scope module textio $end
$upscope $end
$scope module std_logic_1164 $end
$upscope $end
$scope module numeric_std $end
$upscope $end
$scope module std_logic_textio $end
$upscope $end
$scope module std_logic_arith $end
$upscope $end
$scope module std_logic_unsigned $end
$upscope $end
$scope module spi3w_ads7056_driver_tb $end
$var reg 1 ! so_spi_rdy $end
$var reg 1 " s_spi_busy $end
$var reg 1 # si_spi_start $end
$var reg 1 $ si_spi_clk $end
$var reg 18 % b_spi_rx[17:0] $end
$var reg 1 & so_sh_rdy $end
$var reg 1 ' po_spi_clk_out $end
$var reg 1 ( pi_spi_serial $end
$var reg 1 ) po_spi_cs $end
$scope module dut $end
$var reg 1 * si_spi_clk $end
$var reg 1 + po_spi_cs $end
$var reg 1 , po_spi_clk_out $end
$var reg 1 - pi_spi_serial $end
$var reg 1 . si_spi_start $end
$var reg 1 / s_spi_busy $end
$var reg 1 0 so_spi_rdy $end
$var reg 1 1 so_sh_rdy $end
$var reg 18 2 b_spi_rx[17:0] $end
$var reg 4 3 clock_count[3:0] $end
$var reg 18 4 spi_rx_buffer[17:0] $end
$var integer 32 5 i $end
$upscope $end
$upscope $end
$enddefinitions $end
#0
U!
U"
0#
0$
bUUUUUUUUUUUUUUUUUU %
U&
U'
1(
U)
0*
U+
U,
1-
0.
U/
U0
U1
bUUUUUUUUUUUUUUUUUU 2
bUUUU 3
bUUUUUUUUUUUUUUUUUU 4
b0 5
#2000000
0"
1$
1)
1*
1+
0/
#4000000
0$
0*
#6000000
0!
1$
b000000000000000000 %
1'
1*
1,
00
b000000000000000000 2
b10011 5
#8000000
0$
0*
#10000000
1"
1#
1$
0'
0)
1*
0+
0,
1.
1/
#12000000
0$
0*
#14000000
1$
0&
1*
01
#16000000
0$
0*
#18000000
1$
b100000000000000000 %
1'
1*
1,
b100000000000000000 2
b10010 5
#20000000
0#
0$
0*
0.
#22000000
1$
1*
#24000000
0$
0*
#26000000
1$
0'
1*
0,
#28000000
0$
0*
#30000000
1$
1*
#32000000
0$
0*
#34000000
1$
b110000000000000000 %
1'
1*
1,
b110000000000000000 2
b10001 5
#36000000
0$
0*
#38000000
1$
1*
#40000000
0$
0*
#42000000
1$
0'
1*
0,
#44000000
0$
0*
#46000000
1$
1*
#48000000
0$
0*
#50000000
1$
b111000000000000000 %
1'
1*
1,
b111000000000000000 2
b10000 5
#52000000
0$
0*
#54000000
1$
1*
#56000000
0$
0*
#58000000
1$
0'
1*
0,
#60000000
0$
0*
#62000000
1$
1*
#64000000
0$
0*
#66000000
1$
b111100000000000000 %
1'
1*
1,
b111100000000000000 2
b1111 5
#68000000
0$
0*
#70000000
1$
1*
#72000000
0$
0*
#74000000
1$
0'
1*
0,
#76000000
0$
0*
#78000000
1$
1*
#80000000
0$
0*
#82000000
1$
b111110000000000000 %
1&
1'
1*
1,
11
b111110000000000000 2
b1110 5
#84000000
0$
0*
#86000000
1$
0&
1*
01
#88000000
0$
0*
#90000000
1$
0'
1*
0,
#92000000
0$
0*
#94000000
1$
1*
#96000000
0$
0*
#98000000
1$
b111111000000000000 %
1'
1*
1,
b111111000000000000 2
b1101 5
#100000000
0$
0*
#102000000
1$
1*
#104000000
0$
0*
#106000000
1$
0'
1*
0,
#108000000
0$
0*
#110000000
1$
1*
#112000000
0$
0*
#114000000
1$
b111111100000000000 %
1'
1*
1,
b111111100000000000 2
b1100 5
#116000000
0$
0*
#118000000
1$
1*
#120000000
0$
0*
#122000000
1$
0'
1*
0,
#124000000
0$
0*
#126000000
1$
1*
#128000000
0$
0*
#130000000
1$
b111111110000000000 %
1'
1*
1,
b111111110000000000 2
b1011 5
#132000000
0$
0*
#134000000
1$
1*
#136000000
0$
0*
#138000000
1$
0'
1*
0,
#140000000
0$
0*
#142000000
1$
1*
#144000000
0$
0*
#146000000
1$
b111111111000000000 %
1'
1*
1,
b111111111000000000 2
b1010 5
#148000000
0$
0*
#150000000
1$
1*
#152000000
0$
0*
#154000000
1$
0'
1*
0,
#156000000
0$
0*
#158000000
1$
1*
#160000000
0$
0*
#162000000
1$
b111111111100000000 %
1'
1*
1,
b111111111100000000 2
b1001 5
#164000000
0$
0*
#166000000
1$
1*
#168000000
0$
0*
#170000000
1$
0'
1*
0,
#172000000
0$
0*
#174000000
1$
1*
#176000000
0$
0*
#178000000
1$
b111111111110000000 %
1'
1*
1,
b111111111110000000 2
b1000 5
#180000000
0$
0*
#182000000
1$
1*
#184000000
0$
0*
#186000000
1$
0'
1*
0,
#188000000
0$
0*
#190000000
1$
1*
#192000000
0$
0*
#194000000
1$
b111111111111000000 %
1'
1*
1,
b111111111111000000 2
b111 5
#196000000
0$
0*
#198000000
1$
1*
#200000000
0$
0*
#202000000
1$
0'
1*
0,
#204000000
0$
0*
#206000000
1$
1*
#208000000
0$
0*
#210000000
1$
b111111111111100000 %
1'
1*
1,
b111111111111100000 2
b110 5
#212000000
0$
0*
#214000000
1$
1*
#216000000
0$
0*
#218000000
1$
0'
1*
0,
#220000000
0$
0*
#222000000
1$
1*
#224000000
0$
0*
#226000000
1$
b111111111111110000 %
1'
1*
1,
b111111111111110000 2
b101 5
#228000000
0$
0*
#230000000
1$
1*
#232000000
0$
0*
#234000000
1$
0'
1*
0,
#236000000
0$
0*
#238000000
1$
1*
#240000000
0$
0*
#242000000
1$
b111111111111111000 %
1'
1*
1,
b111111111111111000 2
b100 5
#244000000
0$
0*
#246000000
1$
1*
#248000000
0$
0*
#250000000
1$
0'
1*
0,
#252000000
0$
0*
#254000000
1$
1*
#256000000
0$
0*
#258000000
1$
b111111111111111100 %
1'
1*
1,
b111111111111111100 2
b11 5
#260000000
0$
0*
#262000000
1$
1*
#264000000
0$
0*
#266000000
1$
0'
1*
0,
#268000000
0$
0*
#270000000
1$
1*
#272000000
0$
0*
#274000000
1$
b111111111111111110 %
1'
1*
1,
b111111111111111110 2
b10 5
#276000000
0$
0*
#278000000
1$
1*
#280000000
0$
0*
#282000000
1$
0'
1*
0,
#284000000
0$
0*
#286000000
1$
1*
#288000000
0$
0*
#290000000
1!
0"
1$
b111111111111111111 %
1'
1)
1*
1+
1,
0/
10
b111111111111111111 2
b1 5
#292000000
0$
0*
#294000000
0!
1$
b000000000000000000 %
1*
00
b000000000000000000 2
b10011 5
