source/ext_ad/spi3w_ads7056_driver_tb.vcd
$date
  Sun May 19 00:13:35 2019
$end
$version
  GHDL v0
$end
$timescale
  1 fs
$end
$scope module standard $end
$upscope $end
$scope module textio $end
$upscope $end
$scope module std_logic_1164 $end
$upscope $end
$scope module numeric_std $end
$upscope $end
$scope module std_logic_textio $end
$upscope $end
$scope module std_logic_arith $end
$upscope $end
$scope module std_logic_unsigned $end
$upscope $end
$scope module spi3w_ads7056_driver_tb $end
$var reg 1 ! so_spi_rdy $end
$var reg 1 " s_spi_busy $end
$var reg 1 # si_spi_start $end
$var reg 1 $ si_spi_clk $end
$var reg 16 % b_spi_rx[15:0] $end
$var reg 1 & so_sh_rdy $end
$var reg 1 ' po_spi_clk_out $end
$var reg 1 ( pi_spi_serial $end
$var reg 1 ) po_spi_cs $end
$scope module dut $end
$var reg 1 * si_spi_clk $end
$var reg 1 + po_spi_cs $end
$var reg 1 , po_spi_clk_out $end
$var reg 1 - pi_spi_serial $end
$var reg 1 . si_spi_start $end
$var reg 1 / s_spi_busy $end
$var reg 1 0 so_spi_rdy $end
$var reg 1 1 so_sh_rdy $end
$var reg 16 2 b_spi_rx[15:0] $end
$var reg 4 3 clock_count[3:0] $end
$var reg 18 4 spi_rx_buffer[17:0] $end
$var integer 32 5 i $end
$upscope $end
$upscope $end
$enddefinitions $end
#0
U!
U"
0#
0$
bUUUUUUUUUUUUUUUU %
U&
U'
1(
U)
0*
U+
U,
1-
0.
U/
U0
U1
bUUUUUUUUUUUUUUUU 2
bUUUU 3
bUUUUUUUUUUUUUUUUUU 4
b0 5
#2000000
0"
1$
1)
1*
1+
0/
#4000000
0$
0*
#6000000
0!
1$
b0000000000000000 %
1'
1*
1,
00
b0000000000000000 2
b000000000000000000 4
b10011 5
#8000000
0$
0*
#10000000
1"
1#
1$
0'
0)
1*
0+
0,
1.
1/
#12000000
0$
0*
#14000000
1$
b1000000000000000 %
0&
1'
1*
1,
01
b1000000000000000 2
b100000000000000000 4
b10010 5
#16000000
0$
0*
#18000000
1$
0'
1*
0,
#20000000
0#
0$
0*
0.
#22000000
1$
b1100000000000000 %
1'
1*
1,
b1100000000000000 2
b110000000000000000 4
b10001 5
#24000000
0$
0*
#26000000
1$
0'
1*
0,
#28000000
0$
0*
#30000000
1$
b1110000000000000 %
1'
1*
1,
b1110000000000000 2
b111000000000000000 4
b10000 5
#32000000
0$
0*
#34000000
1$
0'
1*
0,
#36000000
0$
0*
#38000000
1$
b1111000000000000 %
1'
1*
1,
b1111000000000000 2
b111100000000000000 4
b1111 5
#40000000
0$
0*
#42000000
1$
0'
1*
0,
#44000000
0$
0*
#46000000
1$
b1111100000000000 %
1'
1*
1,
b1111100000000000 2
b111110000000000000 4
b1110 5
#48000000
0$
0*
#50000000
1$
0'
1*
0,
#52000000
0$
0*
#54000000
1$
b1111110000000000 %
1'
1*
1,
b1111110000000000 2
b111111000000000000 4
b1101 5
#56000000
0$
0*
#58000000
1$
0'
1*
0,
#60000000
0$
0*
#62000000
1$
b1111111000000000 %
1'
1*
1,
b1111111000000000 2
b111111100000000000 4
b1100 5
#64000000
0$
0*
#66000000
1$
0'
1*
0,
#68000000
0$
0*
#70000000
1$
b1111111100000000 %
1'
1*
1,
b1111111100000000 2
b111111110000000000 4
b1011 5
#72000000
0$
0*
#74000000
1$
0'
1*
0,
#76000000
0$
0*
#78000000
1$
b1111111110000000 %
1'
1*
1,
b1111111110000000 2
b111111111000000000 4
b1010 5
#80000000
0$
0*
#82000000
1$
1&
0'
1*
0,
11
#84000000
0$
0*
#86000000
1$
b1111111111000000 %
0&
1'
1*
1,
01
b1111111111000000 2
b111111111100000000 4
b1001 5
#88000000
0$
0*
#90000000
1$
0'
1*
0,
#92000000
0$
0*
#94000000
1$
b1111111111100000 %
1'
1*
1,
b1111111111100000 2
b111111111110000000 4
b1000 5
#96000000
0$
0*
#98000000
1$
0'
1*
0,
#100000000
0$
0*
#102000000
1$
b1111111111110000 %
1'
1*
1,
b1111111111110000 2
b111111111111000000 4
b111 5
#104000000
0$
0*
#106000000
1$
0'
1*
0,
#108000000
0$
0*
#110000000
1$
b1111111111111000 %
1'
1*
1,
b1111111111111000 2
b111111111111100000 4
b110 5
#112000000
0$
0*
#114000000
1$
0'
1*
0,
#116000000
0$
0*
#118000000
1$
b1111111111111100 %
1'
1*
1,
b1111111111111100 2
b111111111111110000 4
b101 5
#120000000
0$
0*
#122000000
1$
0'
1*
0,
#124000000
0$
0*
#126000000
1$
b1111111111111110 %
1'
1*
1,
b1111111111111110 2
b111111111111111000 4
b100 5
#128000000
0$
0*
#130000000
1$
0'
1*
0,
#132000000
0$
0*
#134000000
1$
b1111111111111111 %
1'
1*
1,
b1111111111111111 2
b111111111111111100 4
b11 5
#136000000
0$
0*
#138000000
1$
0'
1*
0,
#140000000
0$
0*
#142000000
1$
1'
1*
1,
b111111111111111110 4
b10 5
#144000000
0$
0*
#146000000
1$
0'
1*
0,
#148000000
0$
0*
#150000000
1!
0"
1$
1'
1)
1*
1+
1,
0/
10
b111111111111111111 4
b1 5
#152000000
0$
0*
#154000000
0!
1$
b0000000000000000 %
1*
00
b0000000000000000 2
b000000000000000000 4
b10011 5
