source/ext_ad/spi3w_ads7056_driver_tb.vcd
$date
  Tue May 28 00:07:24 2019
$end
$version
  GHDL v0
$end
$timescale
  1 fs
$end
$scope module standard $end
$upscope $end
$scope module textio $end
$upscope $end
$scope module std_logic_1164 $end
$upscope $end
$scope module numeric_std $end
$upscope $end
$scope module std_logic_textio $end
$upscope $end
$scope module std_logic_arith $end
$upscope $end
$scope module std_logic_unsigned $end
$upscope $end
$scope module spi3w_ads7056_driver_tb $end
$var reg 1 ! so_spi_rdy $end
$var reg 1 " s_spi_busy $end
$var reg 1 # si_spi_start $end
$var reg 1 $ si_spi_clk $end
$var reg 16 % b_spi_rx[15:0] $end
$var reg 1 & so_sh_rdy $end
$var reg 1 ' po_spi_clk_out $end
$var reg 1 ( pi_spi_serial $end
$var reg 1 ) po_spi_cs $end
$var reg 1 * si_pll_lock $end
$scope module dut $end
$var reg 1 + si_spi_clk $end
$var reg 1 , si_pll_lock $end
$var reg 1 - po_spi_cs $end
$var reg 1 . po_spi_clk_out $end
$var reg 1 / pi_spi_serial $end
$var reg 1 0 si_spi_start $end
$var reg 1 1 s_spi_busy $end
$var reg 1 2 so_spi_rdy $end
$var reg 1 3 so_sh_rdy $end
$var reg 16 4 b_spi_rx[15:0] $end
$var reg 4 5 clock_count[3:0] $end
$var reg 18 6 spi_rx_buffer[17:0] $end
$var integer 32 7 i $end
$var reg 2 8 st_ad_states[1:0] $end
$upscope $end
$upscope $end
$enddefinitions $end
#0
U!
U"
0#
0$
bUUUUUUUUUUUUUUUU %
U&
U'
1(
U)
U*
0+
1,
U-
U.
1/
00
U1
U2
U3
bUUUUUUUUUUUUUUUU 4
bUUUU 5
bUUUUUUUUUUUUUUUUUU 6
b0 7
bUU 8
#7812500
0!
1"
1$
b0000000000000000 %
0&
1'
0)
1+
0-
1.
11
02
03
b0000000000000000 4
b000000000000000000 6
b10011 7
b11 8
#15625000
0$
0+
#23437500
1$
b1000000000000000 %
0'
1+
0.
b1000000000000000 4
b100000000000000000 6
b10010 7
#31250000
0$
0+
#39062500
1$
b0000000000000000 %
1'
1+
1.
b0000000000000000 4
b000000000000000000 6
#46875000
0$
0+
#50000000
1#
10
#54687500
1$
b0100000000000000 %
0'
1+
0.
b0100000000000000 4
b010000000000000000 6
b10001 7
#60000000
0#
00
#62500000
0$
0+
#70312500
1$
b0000000000000000 %
1'
1+
1.
b0000000000000000 4
b000000000000000000 6
#78125000
0$
0+
#85937500
1$
b0010000000000000 %
0'
1+
0.
b0010000000000000 4
b001000000000000000 6
b10000 7
#93750000
0$
0+
#101562500
1$
b0000000000000000 %
1'
1+
1.
b0000000000000000 4
b000000000000000000 6
#109375000
0$
0+
#117187500
1$
b0001000000000000 %
0'
1+
0.
b0001000000000000 4
b000100000000000000 6
b1111 7
#125000000
0$
0+
#132812500
1$
b0000000000000000 %
1'
1+
1.
b0000000000000000 4
b000000000000000000 6
#140625000
0$
0+
#148437500
1$
b0000100000000000 %
0'
1+
0.
b0000100000000000 4
b000010000000000000 6
b1110 7
#156250000
0$
0+
#164062500
1$
b0000000000000000 %
1'
1+
1.
b0000000000000000 4
b000000000000000000 6
#171875000
0$
0+
#179687500
1$
b0000010000000000 %
0'
1+
0.
b0000010000000000 4
b000001000000000000 6
b1101 7
#187500000
0$
0+
#195312500
1$
b0000000000000000 %
1'
1+
1.
b0000000000000000 4
b000000000000000000 6
#203125000
0$
0+
#210937500
1$
b0000001000000000 %
0'
1+
0.
b0000001000000000 4
b000000100000000000 6
b1100 7
#218750000
0$
0+
#226562500
1$
b0000000000000000 %
1'
1+
1.
b0000000000000000 4
b000000000000000000 6
#234375000
0$
0+
#242187500
1$
b0000000100000000 %
0'
1+
0.
b0000000100000000 4
b000000010000000000 6
b1011 7
#250000000
0$
0+
#257812500
1$
b0000000000000000 %
1'
1+
1.
b0000000000000000 4
b000000000000000000 6
#265625000
0$
0+
#273437500
1$
b0000000010000000 %
0'
1+
0.
b0000000010000000 4
b000000001000000000 6
b1010 7
#281250000
0$
0+
#289062500
1$
b0000000000000000 %
1'
1+
1.
b0000000000000000 4
b000000000000000000 6
#296875000
0$
0+
#304687500
1$
b0000000001000000 %
0'
1+
0.
b0000000001000000 4
b000000000100000000 6
b1001 7
#312500000
0$
0+
#320312500
1$
b0000000000000000 %
1'
1+
1.
b0000000000000000 4
b000000000000000000 6
#328125000
0$
0+
#335937500
1$
b0000000000100000 %
0'
1+
0.
b0000000000100000 4
b000000000010000000 6
b1000 7
#343750000
0$
0+
#351562500
1$
b0000000000000000 %
1'
1+
1.
b0000000000000000 4
b000000000000000000 6
#359375000
0$
0+
#367187500
1$
b0000000000010000 %
0'
1+
0.
b0000000000010000 4
b000000000001000000 6
b111 7
#375000000
0$
0+
#382812500
1$
b0000000000000000 %
1'
1+
1.
b0000000000000000 4
b000000000000000000 6
#390625000
0$
0+
#398437500
1$
b0000000000001000 %
0'
1+
0.
b0000000000001000 4
b000000000000100000 6
b110 7
#406250000
0$
0+
#414062500
1$
b0000000000000000 %
1'
1+
1.
b0000000000000000 4
b000000000000000000 6
#421875000
0$
0+
#429687500
1$
b0000000000000100 %
0'
1+
0.
b0000000000000100 4
b000000000000010000 6
b101 7
#437500000
0$
0+
#445312500
1$
b0000000000000000 %
1'
1+
1.
b0000000000000000 4
b000000000000000000 6
#453125000
0$
0+
#460937500
1$
b0000000000000010 %
0'
1+
0.
b0000000000000010 4
b000000000000001000 6
b100 7
#468750000
0$
0+
#476562500
1$
b0000000000000000 %
1'
1+
1.
b0000000000000000 4
b000000000000000000 6
#484375000
0$
0+
#492187500
1$
b0000000000000001 %
0'
1+
0.
b0000000000000001 4
b000000000000000100 6
b11 7
#500000000
0$
0+
#507812500
1$
b0000000000000000 %
1'
1+
1.
b0000000000000000 4
b000000000000000000 6
#515625000
0$
0+
#523437500
1$
0'
1+
0.
b000000000000000010 6
b10 7
#531250000
0$
0+
#539062500
1$
1'
1+
1.
b000000000000000000 6
#546875000
0$
0+
#554687500
1$
0'
1+
0.
b000000000000000001 6
b1 7
#560000000
1#
10
#562500000
0$
0+
#570000000
0#
00
#570312500
1$
1'
1+
1.
b000000000000000000 6
