source/dhb/simulation/tb_phase_modulator.vcd
$date
  Tue Jul 02 19:51:30 2019
$end
$version
  GHDL v0
$end
$timescale
  1 fs
$end
$scope module standard $end
$upscope $end
$scope module textio $end
$upscope $end
$scope module std_logic_1164 $end
$upscope $end
$scope module numeric_std $end
$upscope $end
$scope module std_logic_textio $end
$upscope $end
$scope module std_logic_arith $end
$upscope $end
$scope module std_logic_unsigned $end
$upscope $end
$scope module dhb_pkg $end
$upscope $end
$scope module tb_phase_modulator $end
$comment jihuu is not handled $end
$var reg 1 ! modulator_clk $end
$var reg 2 " po2_dhb_pri_pwm[1:0] $end
$var reg 2 # po2_dhb_sec_pwm[1:0] $end
$var reg 1 $ si_rst_n $end
$var reg 1 % jee_testi $end
$comment ri_dhb_ctrl is not handled $end
$comment po4_dhb_pwm is not handled $end
$scope module dut $end
$var reg 1 & modulator_clk $end
$comment ri_dhb_ctrl is not handled $end
$comment po4_dhb_pwm is not handled $end
$var reg 16 ' s13_dhb_counter[15:0] $end
$var reg 1 ( s_pri_pulse $end
$var reg 1 ) s1_pri_pulse $end
$var reg 1 * s_sec_pulse $end
$var reg 1 + s1_sec_pulse $end
$var reg 16 , u12_phase_delay[15:0] $end
$var reg 16 - u12_pri_carrier[15:0] $end
$var reg 16 . u12_sec_carrier[15:0] $end
$var reg 16 / u16_master_carrier[15:0] $end
$var reg 16 0 u12_phase[15:0] $end
$var reg 16 1 s16_pri_phase[15:0] $end
$var reg 16 2 s16_sec_phase[15:0] $end
$upscope $end
$upscope $end
$enddefinitions $end
#0
0!
bUU "
bUU #
0$
U%
0&
bUUUUUUUUUUUUUUUU '
U(
U)
U*
U+
b0000000000000000 ,
bUUUUUUUUUUUUUUUU -
bUUUUUUUUUUUUUUUU .
bUUUUUUUUUUUUUUUU /
bUUUUUUUUUUUUUUUU 0
bUUUUUUUUUUUUUUUU 1
bUUUUUUUUUUUUUUUU 2
#3962000
1!
b00 "
b00 #
1&
0(
0*
b0000001110110011 -
b0000001110110011 .
b0000001110110011 /
b0000000000000000 1
b0000000000000000 2
#7924000
0!
0&
#11886000
1!
1&
0)
0+
#15848000
0!
0&
#19810000
1!
1&
#23772000
0!
0&
#27734000
1!
1&
#31696000
0!
0&
#35658000
1!
1&
#39620000
0!
0&
#43582000
1!
1&
#47544000
0!
0&
#51506000
1!
1&
#55468000
0!
0&
#59430000
1!
1&
#63392000
0!
0&
#67354000
1!
1&
#71316000
0!
0&
#75278000
1!
1&
#79240000
0!
0&
#83202000
1!
1&
#87164000
0!
0&
#91126000
1!
1&
#95088000
0!
0&
#99050000
1!
1&
#100000000
1$
#103012000
0!
0&
#106974000
1!
b01 "
b01 #
1&
1(
1*
b0000001110110100 -
b0000001110110100 .
b0000001110110100 /
b0000000001111000 2
#110936000
0!
0&
#114898000
1!
1&
0(
1)
0*
1+
b0000001110110101 -
b0000001110110101 .
b0000001110110101 /
#118860000
0!
0&
#122822000
1!
b00 "
b00 #
1&
0)
0+
b0000001110110110 -
b0000001110110110 .
b0000001110110110 /
#126784000
0!
0&
#130746000
1!
1&
b0000001110110111 -
b0000001110110111 .
b0000001110110111 /
#134708000
0!
0&
#138670000
1!
1&
b0000001110111000 -
b0000001110111000 .
b0000001110111000 /
#142632000
0!
0&
#146594000
1!
1&
b0000001110111001 -
b0000001110111001 .
b0000001110111001 /
#150556000
0!
0&
#154518000
1!
1&
b0000001110111010 -
b0000001110111010 .
b0000001110111010 /
#158480000
0!
0&
#162442000
1!
1&
b0000001110111011 -
b0000001110111011 .
b0000001110111011 /
#166404000
0!
0&
#170366000
1!
1&
b0000001110111100 -
b0000001110111100 .
b0000001110111100 /
#174328000
0!
0&
#178290000
1!
1&
b0000001110111101 -
b0000001110111101 .
b0000001110111101 /
#182252000
0!
0&
#186214000
1!
1&
b0000001110111110 -
b0000001110111110 .
b0000001110111110 /
#190176000
0!
0&
#194138000
1!
1&
b0000001110111111 -
b0000001110111111 .
b0000001110111111 /
#198100000
0!
0&
#202062000
1!
1&
b0000001111000000 -
b0000001111000000 .
b0000001111000000 /
#206024000
0!
0&
#209986000
1!
1&
b0000001111000001 -
b0000001111000001 .
b0000001111000001 /
#213948000
0!
0&
#217910000
1!
1&
b0000001111000010 -
b0000001111000010 .
b0000001111000010 /
#221872000
0!
0&
#225834000
1!
1&
b0000001111000011 -
b0000001111000011 .
b0000001111000011 /
#229796000
0!
0&
#233758000
1!
1&
b0000001111000100 -
b0000001111000100 .
b0000001111000100 /
#237720000
0!
0&
#241682000
1!
1&
b0000001111000101 -
b0000001111000101 .
b0000001111000101 /
#245644000
0!
0&
#249606000
1!
1&
b0000001111000110 -
b0000001111000110 .
b0000001111000110 /
#253568000
0!
0&
#257530000
1!
1&
b0000001111000111 -
b0000001111000111 .
b0000001111000111 /
#261492000
0!
0&
#265454000
1!
1&
b0000001111001000 -
b0000001111001000 .
b0000001111001000 /
#269416000
0!
0&
#273378000
1!
1&
b0000001111001001 -
b0000001111001001 .
b0000001111001001 /
#277340000
0!
0&
#281302000
1!
1&
b0000001111001010 -
b0000001111001010 .
b0000001111001010 /
#285264000
0!
0&
#289226000
1!
1&
b0000001111001011 -
b0000001111001011 .
b0000001111001011 /
#293188000
0!
0&
#297150000
1!
1&
b0000001111001100 -
b0000001111001100 .
b0000001111001100 /
#301112000
0!
0&
#305074000
1!
1&
b0000001111001101 -
b0000001111001101 .
b0000001111001101 /
#309036000
0!
0&
#312998000
1!
1&
b0000001111001110 -
b0000001111001110 .
b0000001111001110 /
#316960000
0!
0&
#320922000
1!
1&
b0000001111001111 -
b0000001111001111 .
b0000001111001111 /
#324884000
0!
0&
#328846000
1!
1&
b0000001111010000 -
b0000001111010000 .
b0000001111010000 /
#332808000
0!
0&
#336770000
1!
1&
b0000001111010001 -
b0000001111010001 .
b0000001111010001 /
#340732000
0!
0&
#344694000
1!
1&
b0000001111010010 -
b0000001111010010 .
b0000001111010010 /
#348656000
0!
0&
#352618000
1!
1&
b0000001111010011 -
b0000001111010011 .
b0000001111010011 /
#356580000
0!
0&
#360542000
1!
1&
b0000001111010100 -
b0000001111010100 .
b0000001111010100 /
#364504000
0!
0&
#368466000
1!
1&
b0000001111010101 -
b0000001111010101 .
b0000001111010101 /
#372428000
0!
0&
#376390000
1!
1&
b0000001111010110 -
b0000001111010110 .
b0000001111010110 /
#380352000
0!
0&
#384314000
1!
1&
b0000001111010111 -
b0000001111010111 .
b0000001111010111 /
#388276000
0!
0&
#392238000
1!
1&
b0000001111011000 -
b0000001111011000 .
b0000001111011000 /
#396200000
0!
0&
#400162000
1!
1&
b0000001111011001 -
b0000001111011001 .
b0000001111011001 /
#404124000
0!
0&
#408086000
1!
1&
b0000001111011010 -
b0000001111011010 .
b0000001111011010 /
#412048000
0!
0&
#416010000
1!
1&
b0000001111011011 -
b0000001111011011 .
b0000001111011011 /
#419972000
0!
0&
#423934000
1!
1&
b0000001111011100 -
b0000001111011100 .
b0000001111011100 /
#427896000
0!
0&
#431858000
1!
1&
b0000001111011101 -
b0000001111011101 .
b0000001111011101 /
#435820000
0!
0&
#439782000
1!
1&
b0000001111011110 -
b0000001111011110 .
b0000001111011110 /
#443744000
0!
0&
#447706000
1!
1&
b0000001111011111 -
b0000001111011111 .
b0000001111011111 /
#451668000
0!
0&
#455630000
1!
1&
b0000001111100000 -
b0000001111100000 .
b0000001111100000 /
#459592000
0!
0&
#463554000
1!
1&
b0000001111100001 -
b0000001111100001 .
b0000001111100001 /
#467516000
0!
0&
#471478000
1!
1&
b0000001111100010 -
b0000001111100010 .
b0000001111100010 /
#475440000
0!
0&
#479402000
1!
1&
b0000001111100011 -
b0000001111100011 .
b0000001111100011 /
#483364000
0!
0&
#487326000
1!
1&
b0000001111100100 -
b0000001111100100 .
b0000001111100100 /
#491288000
0!
0&
#495250000
1!
1&
b0000001111100101 -
b0000001111100101 .
b0000001111100101 /
#499212000
0!
0&
#503174000
1!
1&
b0000001111100110 -
b0000001111100110 .
b0000001111100110 /
#507136000
0!
0&
#511098000
1!
1&
b0000001111100111 -
b0000001111100111 .
b0000001111100111 /
#515060000
0!
0&
#519022000
1!
1&
b0000001111101000 -
b0000001111101000 .
b0000001111101000 /
#522984000
0!
0&
#526946000
1!
1&
b0000001111101001 -
b0000001111101001 .
b0000001111101001 /
#530908000
0!
0&
#534870000
1!
1&
b0000001111101010 -
b0000001111101010 .
b0000001111101010 /
#538832000
0!
0&
#542794000
1!
1&
b0000001111101011 -
b0000001111101011 .
b0000001111101011 /
#546756000
0!
0&
#550718000
1!
1&
b0000001111101100 -
b0000001111101100 .
b0000001111101100 /
#554680000
0!
0&
#558642000
1!
1&
b0000001111101101 -
b0000001111101101 .
b0000001111101101 /
#562604000
0!
0&
#566566000
1!
1&
b0000001111101110 -
b0000001111101110 .
b0000001111101110 /
#570528000
0!
0&
#574490000
1!
1&
b0000001111101111 -
b0000001111101111 .
b0000001111101111 /
#578452000
0!
0&
#582414000
1!
b01 "
b01 #
1&
b0000001111110000 -
b0000001111110000 .
b0000001111110000 /
#586376000
0!
0&
#590338000
1!
1&
b0000001111110001 -
b0000001111110001 .
b0000001111110001 /
#594300000
0!
0&
#598262000
1!
1&
b0000001111110010 -
b0000001111110010 .
b0000001111110010 /
#602224000
0!
0&
#606186000
1!
1&
b0000001111110011 -
b0000001111110011 .
b0000001111110011 /
#610148000
0!
0&
#614110000
1!
1&
b0000001111110100 -
b0000001111110100 .
b0000001111110100 /
#618072000
0!
0&
#622034000
1!
1&
b0000001111110101 -
b0000001111110101 .
b0000001111110101 /
#625996000
0!
0&
#629958000
1!
1&
b0000001111110110 -
b0000001111110110 .
b0000001111110110 /
#633920000
0!
0&
#637882000
1!
1&
b0000001111110111 -
b0000001111110111 .
b0000001111110111 /
#641844000
0!
0&
#645806000
1!
1&
b0000001111111000 -
b0000001111111000 .
b0000001111111000 /
#649768000
0!
0&
#653730000
1!
1&
b0000001111111001 -
b0000001111111001 .
b0000001111111001 /
#657692000
0!
0&
#661654000
1!
1&
b0000001111111010 -
b0000001111111010 .
b0000001111111010 /
#665616000
0!
0&
#669578000
1!
1&
b0000001111111011 -
b0000001111111011 .
b0000001111111011 /
#673540000
0!
0&
#677502000
1!
1&
b0000001111111100 -
b0000001111111100 .
b0000001111111100 /
#681464000
0!
0&
#685426000
1!
1&
b0000001111111101 -
b0000001111111101 .
b0000001111111101 /
#689388000
0!
0&
#693350000
1!
1&
b0000001111111110 -
b0000001111111110 .
b0000001111111110 /
#697312000
0!
0&
#701274000
1!
1&
b0000001111111111 -
b0000001111111111 .
b0000001111111111 /
#705236000
0!
0&
#709198000
1!
1&
b0000010000000000 -
b0000010000000000 .
b0000010000000000 /
#713160000
0!
0&
#717122000
1!
1&
b0000010000000001 -
b0000010000000001 .
b0000010000000001 /
#721084000
0!
0&
#725046000
1!
1&
b0000010000000010 -
b0000010000000010 .
b0000010000000010 /
#729008000
0!
0&
#732970000
1!
1&
b0000010000000011 -
b0000010000000011 .
b0000010000000011 /
#736932000
0!
0&
#740894000
1!
1&
b0000010000000100 -
b0000010000000100 .
b0000010000000100 /
#744856000
0!
0&
#748818000
1!
1&
b0000010000000101 -
b0000010000000101 .
b0000010000000101 /
#752780000
0!
0&
#756742000
1!
1&
b0000010000000110 -
b0000010000000110 .
b0000010000000110 /
#760704000
0!
0&
#764666000
1!
1&
b0000010000000111 -
b0000010000000111 .
b0000010000000111 /
#768628000
0!
0&
#772590000
1!
1&
b0000010000001000 -
b0000010000001000 .
b0000010000001000 /
#776552000
0!
0&
#780514000
1!
1&
b0000010000001001 -
b0000010000001001 .
b0000010000001001 /
#784476000
0!
0&
#788438000
1!
1&
b0000010000001010 -
b0000010000001010 .
b0000010000001010 /
#792400000
0!
0&
#796362000
1!
1&
b0000010000001011 -
b0000010000001011 .
b0000010000001011 /
#800324000
0!
0&
#804286000
1!
1&
b0000010000001100 -
b0000010000001100 .
b0000010000001100 /
#808248000
0!
0&
#812210000
1!
1&
b0000010000001101 -
b0000010000001101 .
b0000010000001101 /
#816172000
0!
0&
#820134000
1!
1&
b0000010000001110 -
b0000010000001110 .
b0000010000001110 /
#824096000
0!
0&
#828058000
1!
1&
b0000010000001111 -
b0000010000001111 .
b0000010000001111 /
#832020000
0!
0&
#835982000
1!
1&
b0000010000010000 -
b0000010000010000 .
b0000010000010000 /
#839944000
0!
0&
#843906000
1!
1&
b0000010000010001 -
b0000010000010001 .
b0000010000010001 /
#847868000
0!
0&
#851830000
1!
1&
b0000010000010010 -
b0000010000010010 .
b0000010000010010 /
#855792000
0!
0&
#859754000
1!
1&
b0000010000010011 -
b0000010000010011 .
b0000010000010011 /
#863716000
0!
0&
#867678000
1!
1&
b0000010000010100 -
b0000010000010100 .
b0000010000010100 /
#871640000
0!
0&
#875602000
1!
1&
b0000010000010101 -
b0000010000010101 .
b0000010000010101 /
#879564000
0!
0&
#883526000
1!
1&
b0000010000010110 -
b0000010000010110 .
b0000010000010110 /
#887488000
0!
0&
#891450000
1!
1&
b0000010000010111 -
b0000010000010111 .
b0000010000010111 /
#895412000
0!
0&
#899374000
1!
1&
b0000010000011000 -
b0000010000011000 .
b0000010000011000 /
#903336000
0!
0&
#907298000
1!
1&
b0000010000011001 -
b0000010000011001 .
b0000010000011001 /
#911260000
0!
0&
#915222000
1!
1&
b0000010000011010 -
b0000010000011010 .
b0000010000011010 /
#919184000
0!
0&
#923146000
1!
1&
b0000010000011011 -
b0000010000011011 .
b0000010000011011 /
#927108000
0!
0&
#931070000
1!
1&
b0000010000011100 -
b0000010000011100 .
b0000010000011100 /
#935032000
0!
0&
#938994000
1!
1&
b0000010000011101 -
b0000010000011101 .
b0000010000011101 /
#942956000
0!
0&
#946918000
1!
1&
b0000010000011110 -
b0000010000011110 .
b0000010000011110 /
#950880000
0!
0&
#954842000
1!
1&
b0000010000011111 -
b0000010000011111 .
b0000010000011111 /
#958804000
0!
0&
#962766000
1!
1&
b0000010000100000 -
b0000010000100000 .
b0000010000100000 /
#966728000
0!
0&
#970690000
1!
1&
b0000010000100001 -
b0000010000100001 .
b0000010000100001 /
#974652000
0!
0&
#978614000
1!
1&
b0000010000100010 -
b0000010000100010 .
b0000010000100010 /
#982576000
0!
0&
#986538000
1!
1&
b0000010000100011 -
b0000010000100011 .
b0000010000100011 /
#990500000
0!
0&
#994462000
1!
1&
b0000010000100100 -
b0000010000100100 .
b0000010000100100 /
#998424000
0!
0&
#1002386000
1!
1&
b0000010000100101 -
b0000010000100101 .
b0000010000100101 /
#1006348000
0!
0&
#1010310000
1!
1&
b0000010000100110 -
b0000010000100110 .
b0000010000100110 /
#1014272000
0!
0&
#1018234000
1!
1&
b0000010000100111 -
b0000010000100111 .
b0000010000100111 /
#1022196000
0!
0&
#1026158000
1!
1&
b0000010000101000 -
b0000010000101000 .
b0000010000101000 /
#1030120000
0!
0&
#1034082000
1!
1&
b0000010000101001 -
b0000010000101001 .
b0000010000101001 /
#1038044000
0!
0&
#1042006000
1!
1&
b0000010000101010 -
b0000010000101010 .
b0000010000101010 /
#1045968000
0!
0&
#1049930000
1!
1&
b0000010000101011 -
b0000010000101011 .
b0000010000101011 /
#1053892000
0!
0&
#1057854000
1!
1&
b0000010000101100 -
b0000010000101100 .
b0000010000101100 /
#1061816000
0!
0&
#1065778000
1!
1&
b0000010000101101 -
b0000010000101101 .
b0000010000101101 /
#1069740000
0!
0&
#1073702000
1!
1&
b0000010000101110 -
b0000010000101110 .
b0000010000101110 /
#1077664000
0!
0&
#1081626000
1!
1&
b0000010000101111 -
b0000010000101111 .
b0000010000101111 /
#1085588000
0!
0&
#1089550000
1!
1&
b0000010000110000 -
b0000010000110000 .
b0000010000110000 /
#1093512000
0!
0&
#1097474000
1!
1&
b0000010000110001 -
b0000010000110001 .
b0000010000110001 /
#1101436000
0!
0&
#1105398000
1!
1&
b0000010000110010 -
b0000010000110010 .
b0000010000110010 /
#1109360000
0!
0&
#1113322000
1!
1&
b0000010000110011 -
b0000010000110011 .
b0000010000110011 /
#1117284000
0!
0&
#1121246000
1!
1&
b0000010000110100 -
b0000010000110100 .
b0000010000110100 /
#1125208000
0!
0&
#1129170000
1!
1&
b0000010000110101 -
b0000010000110101 .
b0000010000110101 /
#1133132000
0!
0&
#1137094000
1!
1&
b0000010000110110 -
b0000010000110110 .
b0000010000110110 /
#1141056000
0!
0&
#1145018000
1!
1&
b0000010000110111 -
b0000010000110111 .
b0000010000110111 /
#1148980000
0!
0&
#1152942000
1!
1&
b0000010000111000 -
b0000010000111000 .
b0000010000111000 /
#1156904000
0!
0&
#1160866000
1!
1&
b0000010000111001 -
b0000010000111001 .
b0000010000111001 /
#1164828000
0!
0&
#1168790000
1!
1&
b0000010000111010 -
b0000010000111010 .
b0000010000111010 /
#1172752000
0!
0&
#1176714000
1!
1&
b0000010000111011 -
b0000010000111011 .
b0000010000111011 /
#1180676000
0!
0&
#1184638000
1!
1&
b0000010000111100 -
b0000010000111100 .
b0000010000111100 /
#1188600000
0!
0&
#1192562000
1!
1&
b0000010000111101 -
b0000010000111101 .
b0000010000111101 /
#1196524000
0!
0&
#1200486000
1!
1&
b0000010000111110 -
b0000010000111110 .
b0000010000111110 /
#1204448000
0!
0&
#1208410000
1!
1&
b0000010000111111 -
b0000010000111111 .
b0000010000111111 /
#1212372000
0!
0&
#1216334000
1!
1&
b0000010001000000 -
b0000010001000000 .
b0000010001000000 /
#1220296000
0!
0&
#1224258000
1!
1&
b0000010001000001 -
b0000010001000001 .
b0000010001000001 /
#1228220000
0!
0&
#1232182000
1!
1&
b0000010001000010 -
b0000010001000010 .
b0000010001000010 /
#1236144000
0!
0&
#1240106000
1!
1&
b0000010001000011 -
b0000010001000011 .
b0000010001000011 /
#1244068000
0!
0&
#1248030000
1!
1&
b0000010001000100 -
b0000010001000100 .
b0000010001000100 /
#1251992000
0!
0&
#1255954000
1!
1&
b0000010001000101 -
b0000010001000101 .
b0000010001000101 /
#1259916000
0!
0&
#1263878000
1!
1&
b0000010001000110 -
b0000010001000110 .
b0000010001000110 /
#1267840000
0!
0&
#1271802000
1!
1&
b0000010001000111 -
b0000010001000111 .
b0000010001000111 /
#1275764000
0!
0&
#1279726000
1!
1&
b0000010001001000 -
b0000010001001000 .
b0000010001001000 /
#1283688000
0!
0&
#1287650000
1!
1&
b0000010001001001 -
b0000010001001001 .
b0000010001001001 /
#1291612000
0!
0&
#1295574000
1!
1&
b0000010001001010 -
b0000010001001010 .
b0000010001001010 /
#1299536000
0!
0&
#1303498000
1!
1&
b0000010001001011 -
b0000010001001011 .
b0000010001001011 /
#1307460000
0!
0&
#1311422000
1!
1&
b0000010001001100 -
b0000010001001100 .
b0000010001001100 /
#1315384000
0!
0&
#1319346000
1!
1&
b0000010001001101 -
b0000010001001101 .
b0000010001001101 /
#1323308000
0!
0&
#1327270000
1!
1&
b0000010001001110 -
b0000010001001110 .
b0000010001001110 /
#1331232000
0!
0&
#1335194000
1!
1&
b0000010001001111 -
b0000010001001111 .
b0000010001001111 /
#1339156000
0!
0&
#1343118000
1!
1&
b0000010001010000 -
b0000010001010000 .
b0000010001010000 /
#1347080000
0!
0&
#1351042000
1!
1&
b0000010001010001 -
b0000010001010001 .
b0000010001010001 /
#1355004000
0!
0&
#1358966000
1!
1&
b0000010001010010 -
b0000010001010010 .
b0000010001010010 /
#1362928000
0!
0&
#1366890000
1!
1&
b0000010001010011 -
b0000010001010011 .
b0000010001010011 /
#1370852000
0!
0&
#1374814000
1!
1&
b0000010001010100 -
b0000010001010100 .
b0000010001010100 /
#1378776000
0!
0&
#1382738000
1!
1&
b0000010001010101 -
b0000010001010101 .
b0000010001010101 /
#1386700000
0!
0&
#1390662000
1!
1&
b0000010001010110 -
b0000010001010110 .
b0000010001010110 /
#1394624000
0!
0&
#1398586000
1!
1&
b0000010001010111 -
b0000010001010111 .
b0000010001010111 /
#1402548000
0!
0&
#1406510000
1!
1&
b0000010001011000 -
b0000010001011000 .
b0000010001011000 /
#1410472000
0!
0&
#1414434000
1!
1&
b0000010001011001 -
b0000010001011001 .
b0000010001011001 /
#1418396000
0!
0&
#1422358000
1!
1&
b0000010001011010 -
b0000010001011010 .
b0000010001011010 /
#1426320000
0!
0&
#1430282000
1!
1&
b0000010001011011 -
b0000010001011011 .
b0000010001011011 /
#1434244000
0!
0&
#1438206000
1!
1&
b0000010001011100 -
b0000010001011100 .
b0000010001011100 /
#1442168000
0!
0&
#1446130000
1!
1&
b0000010001011101 -
b0000010001011101 .
b0000010001011101 /
#1450092000
0!
0&
#1454054000
1!
1&
b0000010001011110 -
b0000010001011110 .
b0000010001011110 /
#1458016000
0!
0&
#1461978000
1!
1&
b0000010001011111 -
b0000010001011111 .
b0000010001011111 /
#1465940000
0!
0&
#1469902000
1!
1&
b0000010001100000 -
b0000010001100000 .
b0000010001100000 /
#1473864000
0!
0&
#1477826000
1!
1&
b0000010001100001 -
b0000010001100001 .
b0000010001100001 /
#1481788000
0!
0&
#1485750000
1!
1&
b0000010001100010 -
b0000010001100010 .
b0000010001100010 /
#1489712000
0!
0&
#1493674000
1!
1&
b0000010001100011 -
b0000010001100011 .
b0000010001100011 /
#1497636000
0!
0&
#1501598000
1!
1&
b0000010001100100 -
b0000010001100100 .
b0000010001100100 /
#1505560000
0!
0&
#1509522000
1!
1&
b0000010001100101 -
b0000010001100101 .
b0000010001100101 /
#1513484000
0!
0&
#1517446000
1!
1&
b0000010001100110 -
b0000010001100110 .
b0000010001100110 /
#1521408000
0!
0&
#1525370000
1!
1&
b0000010001100111 -
b0000010001100111 .
b0000010001100111 /
#1529332000
0!
0&
#1533294000
1!
1&
b0000010001101000 -
b0000010001101000 .
b0000010001101000 /
#1537256000
0!
0&
#1541218000
1!
1&
b0000010001101001 -
b0000010001101001 .
b0000010001101001 /
#1545180000
0!
0&
#1549142000
1!
1&
b0000010001101010 -
b0000010001101010 .
b0000010001101010 /
#1553104000
0!
0&
#1557066000
1!
1&
b0000010001101011 -
b0000010001101011 .
b0000010001101011 /
#1561028000
0!
0&
#1564990000
1!
1&
b0000010001101100 -
b0000010001101100 .
b0000010001101100 /
#1568952000
0!
0&
#1572914000
1!
1&
b0000010001101101 -
b0000010001101101 .
b0000010001101101 /
#1576876000
0!
0&
#1580838000
1!
1&
b0000010001101110 -
b0000010001101110 .
b0000010001101110 /
#1584800000
0!
0&
#1588762000
1!
1&
b0000010001101111 -
b0000010001101111 .
b0000010001101111 /
#1592724000
0!
0&
#1596686000
1!
1&
b0000010001110000 -
b0000010001110000 .
b0000010001110000 /
#1600648000
0!
0&
#1604610000
1!
1&
b0000010001110001 -
b0000010001110001 .
b0000010001110001 /
#1608572000
0!
0&
#1612534000
1!
1&
b0000010001110010 -
b0000010001110010 .
b0000010001110010 /
#1616496000
0!
0&
#1620458000
1!
1&
b0000010001110011 -
b0000010001110011 .
b0000010001110011 /
#1624420000
0!
0&
#1628382000
1!
1&
b0000010001110100 -
b0000010001110100 .
b0000010001110100 /
#1632344000
0!
0&
#1636306000
1!
1&
b0000010001110101 -
b0000010001110101 .
b0000010001110101 /
#1640268000
0!
0&
#1644230000
1!
1&
b0000010001110110 -
b0000010001110110 .
b0000010001110110 /
#1648192000
0!
0&
#1652154000
1!
1&
b0000010001110111 -
b0000010001110111 .
b0000010001110111 /
#1656116000
0!
0&
#1660078000
1!
1&
b0000010001111000 -
b0000010001111000 .
b0000010001111000 /
#1664040000
0!
0&
#1668002000
1!
1&
b0000010001111001 -
b0000010001111001 .
b0000010001111001 /
#1671964000
0!
0&
#1675926000
1!
1&
b0000010001111010 -
b0000010001111010 .
b0000010001111010 /
#1679888000
0!
0&
#1683850000
1!
1&
b0000010001111011 -
b0000010001111011 .
b0000010001111011 /
#1687812000
0!
0&
#1691774000
1!
1&
b0000010001111100 -
b0000010001111100 .
b0000010001111100 /
#1695736000
0!
0&
#1699698000
1!
1&
b0000010001111101 -
b0000010001111101 .
b0000010001111101 /
#1703660000
0!
0&
#1707622000
1!
1&
b0000010001111110 -
b0000010001111110 .
b0000010001111110 /
#1711584000
0!
0&
#1715546000
1!
1&
b0000010001111111 -
b0000010001111111 .
b0000010001111111 /
#1719508000
0!
0&
#1723470000
1!
1&
b0000010010000000 -
b0000010010000000 .
b0000010010000000 /
#1727432000
0!
0&
#1731394000
1!
1&
b0000010010000001 -
b0000010010000001 .
b0000010010000001 /
#1735356000
0!
0&
#1739318000
1!
1&
b0000010010000010 -
b0000010010000010 .
b0000010010000010 /
#1743280000
0!
0&
#1747242000
1!
1&
b0000010010000011 -
b0000010010000011 .
b0000010010000011 /
#1751204000
0!
0&
#1755166000
1!
1&
b0000010010000100 -
b0000010010000100 .
b0000010010000100 /
#1759128000
0!
0&
#1763090000
1!
1&
b0000010010000101 -
b0000010010000101 .
b0000010010000101 /
#1767052000
0!
0&
#1771014000
1!
1&
b0000010010000110 -
b0000010010000110 .
b0000010010000110 /
#1774976000
0!
0&
#1778938000
1!
1&
b0000010010000111 -
b0000010010000111 .
b0000010010000111 /
#1782900000
0!
0&
#1786862000
1!
1&
b0000010010001000 -
b0000010010001000 .
b0000010010001000 /
#1790824000
0!
0&
#1794786000
1!
1&
b0000010010001001 -
b0000010010001001 .
b0000010010001001 /
#1798748000
0!
0&
#1802710000
1!
1&
b0000010010001010 -
b0000010010001010 .
b0000010010001010 /
#1806672000
0!
0&
#1810634000
1!
1&
b0000010010001011 -
b0000010010001011 .
b0000010010001011 /
#1814596000
0!
0&
#1818558000
1!
1&
b0000010010001100 -
b0000010010001100 .
b0000010010001100 /
#1822520000
0!
0&
#1826482000
1!
1&
b0000010010001101 -
b0000010010001101 .
b0000010010001101 /
#1830444000
0!
0&
#1834406000
1!
1&
b0000010010001110 -
b0000010010001110 .
b0000010010001110 /
#1838368000
0!
0&
#1842330000
1!
1&
b0000010010001111 -
b0000010010001111 .
b0000010010001111 /
#1846292000
0!
0&
#1850254000
1!
1&
b0000010010010000 -
b0000010010010000 .
b0000010010010000 /
#1854216000
0!
0&
#1858178000
1!
1&
b0000010010010001 -
b0000010010010001 .
b0000010010010001 /
#1862140000
0!
0&
#1866102000
1!
1&
b0000010010010010 -
b0000010010010010 .
b0000010010010010 /
#1870064000
0!
0&
#1874026000
1!
1&
b0000010010010011 -
b0000010010010011 .
b0000010010010011 /
#1877988000
0!
0&
#1881950000
1!
1&
b0000010010010100 -
b0000010010010100 .
b0000010010010100 /
#1885912000
0!
0&
#1889874000
1!
1&
b0000010010010101 -
b0000010010010101 .
b0000010010010101 /
#1893836000
0!
0&
#1897798000
1!
1&
b0000010010010110 -
b0000010010010110 .
b0000010010010110 /
#1901760000
0!
0&
#1905722000
1!
1&
b0000010010010111 -
b0000010010010111 .
b0000010010010111 /
#1909684000
0!
0&
#1913646000
1!
1&
b0000010010011000 -
b0000010010011000 .
b0000010010011000 /
#1917608000
0!
0&
#1921570000
1!
1&
b0000010010011001 -
b0000010010011001 .
b0000010010011001 /
#1925532000
0!
0&
#1929494000
1!
1&
b0000010010011010 -
b0000010010011010 .
b0000010010011010 /
#1933456000
0!
0&
#1937418000
1!
1&
b0000010010011011 -
b0000010010011011 .
b0000010010011011 /
#1941380000
0!
0&
#1945342000
1!
1&
b0000010010011100 -
b0000010010011100 .
b0000010010011100 /
#1949304000
0!
0&
#1953266000
1!
1&
b0000010010011101 -
b0000010010011101 .
b0000010010011101 /
#1957228000
0!
0&
#1961190000
1!
1&
b0000010010011110 -
b0000010010011110 .
b0000010010011110 /
#1965152000
0!
0&
#1969114000
1!
1&
b0000010010011111 -
b0000010010011111 .
b0000010010011111 /
#1973076000
0!
0&
#1977038000
1!
1&
b0000010010100000 -
b0000010010100000 .
b0000010010100000 /
#1981000000
0!
0&
#1984962000
1!
1&
b0000010010100001 -
b0000010010100001 .
b0000010010100001 /
#1988924000
0!
0&
#1992886000
1!
1&
b0000010010100010 -
b0000010010100010 .
b0000010010100010 /
#1996848000
0!
0&
#2000810000
1!
1&
b0000010010100011 -
b0000010010100011 .
b0000010010100011 /
#2004772000
0!
0&
#2008734000
1!
1&
b0000010010100100 -
b0000010010100100 .
b0000010010100100 /
#2012696000
0!
0&
#2016658000
1!
1&
b0000010010100101 -
b0000010010100101 .
b0000010010100101 /
#2020620000
0!
0&
#2024582000
1!
1&
b0000010010100110 -
b0000010010100110 .
b0000010010100110 /
#2028544000
0!
0&
#2032506000
1!
1&
b0000010010100111 -
b0000010010100111 .
b0000010010100111 /
#2036468000
0!
0&
#2040430000
1!
1&
b0000010010101000 -
b0000010010101000 .
b0000010010101000 /
#2044392000
0!
0&
#2048354000
1!
1&
b0000010010101001 -
b0000010010101001 .
b0000010010101001 /
#2052316000
0!
0&
#2056278000
1!
1&
b0000010010101010 -
b0000010010101010 .
b0000010010101010 /
#2060240000
0!
0&
#2064202000
1!
1&
b0000010010101011 -
b0000010010101011 .
b0000010010101011 /
#2068164000
0!
0&
#2072126000
1!
1&
b0000010010101100 -
b0000010010101100 .
b0000010010101100 /
#2076088000
0!
0&
#2080050000
1!
1&
b0000010010101101 -
b0000010010101101 .
b0000010010101101 /
#2084012000
0!
0&
#2087974000
1!
1&
b0000010010101110 -
b0000010010101110 .
b0000010010101110 /
#2091936000
0!
0&
#2095898000
1!
1&
b0000010010101111 -
b0000010010101111 .
b0000010010101111 /
#2099860000
0!
0&
#2103822000
1!
1&
b0000010010110000 -
b0000010010110000 .
b0000010010110000 /
#2107784000
0!
0&
#2111746000
1!
1&
b0000010010110001 -
b0000010010110001 .
b0000010010110001 /
#2115708000
0!
0&
#2119670000
1!
1&
b0000010010110010 -
b0000010010110010 .
b0000010010110010 /
#2123632000
0!
0&
#2127594000
1!
1&
b0000010010110011 -
b0000010010110011 .
b0000010010110011 /
#2131556000
0!
0&
