source/top/system_control/component_interconnect/ext_ad/simulation/spi3w_testbench.vcd
$date
  Fri Jul 05 11:54:17 2019
$end
$version
  GHDL v0
$end
$timescale
  1 fs
$end
$scope module standard $end
$upscope $end
$scope module textio $end
$upscope $end
$scope module std_logic_1164 $end
$upscope $end
$scope module numeric_std $end
$upscope $end
$scope module std_logic_textio $end
$upscope $end
$scope module std_logic_arith $end
$upscope $end
$scope module std_logic_unsigned $end
$upscope $end
$scope module spi3w_testbench $end
$var reg 1 ! so_spi_rdy $end
$var reg 1 " s_spi_busy $end
$var reg 1 # si_spi_start $end
$var reg 1 $ si_spi_clk $end
$var reg 16 % b_spi_rx[15:0] $end
$var reg 1 & so_sh_rdy $end
$var reg 1 ' po_spi_clk_out $end
$var reg 1 ( pi_spi_serial $end
$var reg 1 ) po_spi_cs $end
$var reg 1 * si_rstn $end
$scope module dut $end
$var reg 1 + si_spi_clk $end
$var reg 1 , si_rstn $end
$var reg 1 - po_spi_cs $end
$var reg 1 . po_spi_clk_out $end
$var reg 1 / pi_spi_serial $end
$var reg 1 0 si_spi_start $end
$var reg 1 1 s_spi_busy $end
$var reg 1 2 so_spi_rdy $end
$var reg 1 3 so_sh_rdy $end
$var reg 16 4 b_spi_rx[15:0] $end
$var reg 4 5 clock_count[3:0] $end
$var reg 16 6 spi_rx_buffer[15:0] $end
$var integer 32 7 i $end
$var reg 1 8 clk_buffer $end
$upscope $end
$upscope $end
$enddefinitions $end
#0
U!
U"
0#
0$
bUUUUUUUUUUUUUUUU %
U&
U'
1(
U)
0*
0+
0,
U-
U.
1/
00
U1
U2
U3
bUUUUUUUUUUUUUUUU 4
bUUUU 5
bUUUUUUUUUUUUUUUU 6
b0 7
U8
#2000000
0"
1$
1)
1*
1+
1,
1-
01
#4000000
0$
0+
#6000000
0!
1$
b0000000000000000 %
1+
02
b0000000000000000 4
b1111 7
18
#8000000
0$
0+
#10000000
1"
1#
1$
1'
0)
1+
0-
1.
10
11
08
#12000000
0$
0+
#14000000
1$
0&
0'
1+
0.
03
#16000000
0$
0+
#18000000
1$
b0010000000000000 %
1+
b0010000000000000 4
b1110 7
#20000000
0#
0$
0+
00
#22000000
1$
1+
#24000000
0$
0+
#26000000
1$
1+
18
#28000000
0$
0+
#30000000
1$
1'
1+
1.
#32000000
0$
0+
#34000000
1$
1+
#36000000
0$
0+
#38000000
1$
1+
#40000000
0$
0+
#42000000
1$
1+
08
#44000000
0$
0+
#46000000
1$
1&
0'
1+
0.
13
#48000000
0$
0+
#50000000
1$
b0011000000000000 %
0&
1+
03
b0011000000000000 4
b1101 7
#52000000
0$
0+
#54000000
1$
1+
#56000000
0$
0+
#58000000
1$
1+
18
#60000000
0$
0+
#62000000
1$
1'
1+
1.
#64000000
0$
0+
#66000000
1$
1+
#68000000
0$
0+
#70000000
1$
1+
#72000000
0$
0+
#74000000
1$
1+
08
#76000000
0$
0+
#78000000
1$
0'
1+
0.
#80000000
0$
0+
#82000000
1$
b0011100000000000 %
1+
b0011100000000000 4
b1100 7
#84000000
0$
0+
#86000000
1$
1+
#88000000
0$
0+
#90000000
1$
1+
18
#92000000
0$
0+
#94000000
1$
1'
1+
1.
#96000000
0$
0+
#98000000
1$
1+
#100000000
0$
0+
#102000000
1$
1+
#104000000
0$
0+
#106000000
1$
1+
08
#108000000
0$
0+
#110000000
1$
0'
1+
0.
#112000000
0$
0+
#114000000
1$
b0011110000000000 %
1+
b0011110000000000 4
b1011 7
#116000000
0$
0+
#118000000
1$
1+
#120000000
0$
0+
#122000000
1$
1+
18
#124000000
0$
0+
#126000000
1$
1'
1+
1.
#128000000
0$
0+
#130000000
1$
1+
#132000000
0$
0+
#134000000
1$
1+
#136000000
0$
0+
#138000000
1$
1+
08
#140000000
0$
0+
#142000000
1$
0'
1+
0.
#144000000
0$
0+
#146000000
1$
b0011111000000000 %
1+
b0011111000000000 4
b1010 7
#148000000
0$
0+
#150000000
1$
1+
#152000000
0$
0+
#154000000
1$
1+
18
#156000000
0$
0+
#158000000
1$
1'
1+
1.
#160000000
0$
0+
#162000000
1$
1+
#164000000
0$
0+
#166000000
1$
1+
#168000000
0$
0+
#170000000
1$
1+
08
#172000000
0$
0+
#174000000
1$
0'
1+
0.
#176000000
0$
0+
#178000000
1$
b0011111100000000 %
1+
b0011111100000000 4
b1001 7
#180000000
0$
0+
#182000000
1$
1+
#184000000
0$
0+
#186000000
1$
1+
18
#188000000
0$
0+
#190000000
1$
1'
1+
1.
#192000000
0$
0+
#194000000
1$
1+
#196000000
0$
0+
#198000000
1$
1+
#200000000
0$
0+
#202000000
1$
1+
08
#204000000
0$
0+
#206000000
1$
0'
1+
0.
#208000000
0$
0+
#210000000
1$
b0011111110000000 %
1+
b0011111110000000 4
b1000 7
#212000000
0$
0+
#214000000
1$
1+
#216000000
0$
0+
#218000000
1$
1+
18
#220000000
0$
0+
#222000000
1$
1'
1+
1.
#224000000
0$
0+
#226000000
1$
1+
#228000000
0$
0+
#230000000
1$
1+
#232000000
0$
0+
#234000000
1$
1+
08
#236000000
0$
0+
#238000000
1$
0'
1+
0.
#240000000
0$
0+
#242000000
1$
b0011111111000000 %
1+
b0011111111000000 4
b111 7
#244000000
0$
0+
#246000000
1$
1+
#248000000
0$
0+
#250000000
1$
1+
18
#252000000
0$
0+
#254000000
1$
1'
1+
1.
#256000000
0$
0+
#258000000
1$
1+
#260000000
0$
0+
#262000000
1$
1+
#264000000
0$
0+
#266000000
1$
1+
08
#268000000
0$
0+
#270000000
1$
0'
1+
0.
#272000000
0$
0+
#274000000
1$
b0011111111100000 %
1+
b0011111111100000 4
b110 7
#276000000
0$
0+
#278000000
1$
1+
#280000000
0$
0+
#282000000
1$
1+
18
#284000000
0$
0+
#286000000
1$
1'
1+
1.
#288000000
0$
0+
#290000000
1$
1+
#292000000
0$
0+
#294000000
1$
1+
#296000000
0$
0+
#298000000
1$
1+
08
#300000000
0$
0+
#302000000
1$
0'
1+
0.
#304000000
0$
0+
#306000000
1$
b0011111111110000 %
1+
b0011111111110000 4
b101 7
#308000000
0$
0+
#310000000
1$
1+
#312000000
0$
0+
#314000000
1$
1+
18
#316000000
0$
0+
#318000000
1$
1'
1+
1.
#320000000
0$
0+
#322000000
1$
1+
#324000000
0$
0+
#326000000
1$
1+
#328000000
0$
0+
#330000000
1$
1+
08
#332000000
0$
0+
#334000000
1$
0'
1+
0.
#336000000
0$
0+
#338000000
1$
b0011111111111000 %
1+
b0011111111111000 4
b100 7
#340000000
0$
0+
#342000000
1$
1+
#344000000
0$
0+
#346000000
1$
1+
18
#348000000
0$
0+
#350000000
1$
1'
1+
1.
#352000000
0$
0+
#354000000
1$
1+
#356000000
0$
0+
#358000000
1$
1+
#360000000
0$
0+
#362000000
1$
1+
08
#364000000
0$
0+
#366000000
1$
0'
1+
0.
#368000000
0$
0+
#370000000
1$
b0011111111111100 %
1+
b0011111111111100 4
b11 7
#372000000
0$
0+
#374000000
1$
1+
#376000000
0$
0+
#378000000
1$
1+
18
#380000000
0$
0+
#382000000
1$
1'
1+
1.
#384000000
0$
0+
#386000000
1$
1+
#388000000
0$
0+
#390000000
1$
1+
#392000000
0$
0+
#394000000
1$
1+
08
#396000000
0$
0+
#398000000
1$
0'
1+
0.
#400000000
0$
0+
#402000000
1$
b0011111111111110 %
1+
b0011111111111110 4
b10 7
#404000000
0$
0+
#406000000
1$
1+
#408000000
0$
0+
#410000000
1$
1+
18
#412000000
0$
0+
#414000000
1$
1'
1+
1.
#416000000
0$
0+
#418000000
1$
1+
#420000000
0$
0+
#422000000
1$
1+
#424000000
0$
0+
#426000000
1$
1+
08
#428000000
0$
0+
#430000000
1$
0'
1+
0.
#432000000
0$
0+
#434000000
1$
b0011111111111111 %
1+
b0011111111111111 4
b1 7
#436000000
0$
0+
#438000000
1$
1+
#440000000
0$
0+
#442000000
1$
1+
18
#444000000
0$
0+
#446000000
1!
0"
1$
1'
1)
1+
1-
1.
01
12
#448000000
0$
0+
#450000000
0!
1$
b0000000000000000 %
1+
02
b0000000000000000 4
b1111 7
#452000000
0$
0+
#454000000
1$
1+
#456000000
0$
0+
#458000000
1$
1+
#460000000
0$
0+
#462000000
1$
1+
#464000000
0$
0+
#466000000
1$
1+
#468000000
0$
0+
#470000000
1$
1+
#472000000
0$
0+
#474000000
1$
1+
#476000000
0$
0+
#478000000
1$
1+
#480000000
0$
0+
#482000000
1$
1+
#484000000
0$
0+
#486000000
1$
1+
#488000000
0$
0+
#490000000
1$
1+
#492000000
0$
0+
#494000000
1$
1+
#496000000
0$
0+
#498000000
1$
1+
#500000000
0$
0+
#502000000
1$
1+
#504000000
0$
0+
#506000000
1$
1+
#508000000
0$
0+
#510000000
1$
1+
#512000000
0$
0+
#514000000
1$
1+
#516000000
0$
0+
#518000000
1$
1+
#520000000
1#
0$
0+
10
#522000000
1"
1$
0)
1+
0-
11
08
#524000000
0$
0+
#526000000
1$
0'
1+
0.
#528000000
0$
0+
#530000000
0#
1$
b0010000000000000 %
1+
00
b0010000000000000 4
b1110 7
#532000000
0$
0+
#534000000
1$
1+
#536000000
0$
0+
#538000000
1$
1+
18
#540000000
0$
0+
#542000000
1$
1'
1+
1.
#544000000
0$
0+
#546000000
1$
1+
#548000000
0$
0+
#550000000
1$
1+
#552000000
0$
0+
#554000000
1$
1+
08
#556000000
0$
0+
#558000000
1$
1&
0'
1+
0.
13
#560000000
0$
0+
#562000000
1$
b0011000000000000 %
0&
1+
03
b0011000000000000 4
b1101 7
#564000000
0$
0+
#566000000
1$
1+
#568000000
0$
0+
#570000000
1$
1+
18
#572000000
0$
0+
#574000000
1$
1'
1+
1.
#576000000
0$
0+
#578000000
1$
1+
#580000000
0$
0+
#582000000
1$
1+
#584000000
0$
0+
#586000000
1$
1+
08
#588000000
0$
0+
#590000000
1$
0'
1+
0.
#592000000
0$
0+
#594000000
1$
b0011100000000000 %
1+
b0011100000000000 4
b1100 7
#596000000
0$
0+
#598000000
1$
1+
#600000000
0$
0+
#602000000
1$
1+
18
#604000000
0$
0+
#606000000
1$
1'
1+
1.
#608000000
0$
0+
#610000000
1$
1+
#612000000
0$
0+
#614000000
1$
1+
#616000000
0$
0+
#618000000
1$
1+
08
#620000000
0$
0+
#622000000
1$
0'
1+
0.
#624000000
0$
0+
#626000000
1$
b0011110000000000 %
1+
b0011110000000000 4
b1011 7
#628000000
0$
0+
#630000000
1$
1+
#632000000
0$
0+
#634000000
1$
1+
18
#636000000
0$
0+
#638000000
1$
1'
1+
1.
#640000000
0$
0+
#642000000
1$
1+
#644000000
0$
0+
#646000000
1$
1+
#648000000
0$
0+
#650000000
1$
1+
08
#652000000
0$
0+
#654000000
1$
0'
1+
0.
#656000000
0$
0+
#658000000
1$
b0011111000000000 %
1+
b0011111000000000 4
b1010 7
#660000000
0$
0+
#662000000
1$
1+
#664000000
0$
0+
#666000000
1$
1+
18
#668000000
0$
0+
#670000000
1$
1'
1+
1.
#672000000
0$
0+
#674000000
1$
1+
#676000000
0$
0+
#678000000
1$
1+
#680000000
0$
0+
#682000000
1$
1+
08
#684000000
0$
0+
#686000000
1$
0'
1+
0.
#688000000
0$
0+
#690000000
1$
b0011111100000000 %
1+
b0011111100000000 4
b1001 7
#692000000
0$
0+
#694000000
1$
1+
#696000000
0$
0+
#698000000
1$
1+
18
#700000000
0$
0+
#702000000
1$
1'
1+
1.
#704000000
0$
0+
#706000000
1$
1+
#708000000
0$
0+
#710000000
1$
1+
#712000000
0$
0+
#714000000
1$
1+
08
#716000000
0$
0+
#718000000
1$
0'
1+
0.
#720000000
0$
0+
#722000000
1$
b0011111110000000 %
1+
b0011111110000000 4
b1000 7
#724000000
0$
0+
#726000000
1$
1+
#728000000
0$
0+
#730000000
1$
1+
18
#732000000
0$
0+
#734000000
1$
1'
1+
1.
#736000000
0$
0+
#738000000
1$
1+
#740000000
0$
0+
#742000000
1$
1+
#744000000
0$
0+
#746000000
1$
1+
08
#748000000
0$
0+
#750000000
1$
0'
1+
0.
#752000000
0$
0+
#754000000
1$
b0011111111000000 %
1+
b0011111111000000 4
b111 7
#756000000
0$
0+
#758000000
1$
1+
#760000000
0$
0+
#762000000
1$
1+
18
#764000000
0$
0+
#766000000
1$
1'
1+
1.
#768000000
0$
0+
#770000000
1$
1+
#772000000
0$
0+
#774000000
1$
1+
#776000000
0$
0+
#778000000
1$
1+
08
#780000000
0$
0+
#782000000
1$
0'
1+
0.
#784000000
0$
0+
#786000000
1$
b0011111111100000 %
1+
b0011111111100000 4
b110 7
#788000000
0$
0+
#790000000
1$
1+
#792000000
0$
0+
#794000000
1$
1+
18
#796000000
0$
0+
#798000000
1$
1'
1+
1.
#800000000
0$
0+
#802000000
1$
1+
#804000000
0$
0+
#806000000
1$
1+
#808000000
0$
0+
#810000000
1$
1+
08
#812000000
0$
0+
#814000000
1$
0'
1+
0.
#816000000
0$
0+
#818000000
1$
b0011111111110000 %
1+
b0011111111110000 4
b101 7
#820000000
0$
0+
#822000000
1$
1+
#824000000
0$
0+
#826000000
1$
1+
18
#828000000
0$
0+
#830000000
1$
1'
1+
1.
#832000000
0$
0+
#834000000
1$
1+
#836000000
0$
0+
#838000000
1$
1+
#840000000
0$
0+
#842000000
1$
1+
08
#844000000
0$
0+
#846000000
1$
0'
1+
0.
#848000000
0$
0+
#850000000
1$
b0011111111111000 %
1+
b0011111111111000 4
b100 7
#852000000
0$
0+
#854000000
1$
1+
#856000000
0$
0+
#858000000
1$
1+
18
#860000000
0$
0+
#862000000
1$
1'
1+
1.
#864000000
0$
0+
#866000000
1$
1+
#868000000
0$
0+
#870000000
1$
1+
#872000000
0$
0+
#874000000
1$
1+
08
#876000000
0$
0+
#878000000
1$
0'
1+
0.
#880000000
0$
0+
#882000000
1$
b0011111111111100 %
1+
b0011111111111100 4
b11 7
#884000000
0$
0+
#886000000
1$
1+
#888000000
0$
0+
#890000000
1$
1+
18
#892000000
0$
0+
#894000000
1$
1'
1+
1.
#896000000
0$
0+
#898000000
1$
1+
#900000000
0$
0+
#902000000
1$
1+
#904000000
0$
0+
#906000000
1$
1+
08
#908000000
0$
0+
#910000000
1$
0'
1+
0.
#912000000
0$
0+
#914000000
1$
b0011111111111110 %
1+
b0011111111111110 4
b10 7
#916000000
0$
0+
#918000000
1$
1+
#920000000
0$
0+
#922000000
1$
1+
18
#924000000
0$
0+
#926000000
1$
1'
1+
1.
#928000000
0$
0+
#930000000
1$
1+
#932000000
0$
0+
#934000000
1$
1+
#936000000
0$
0+
#938000000
1$
1+
08
#940000000
0$
0+
#942000000
1$
0'
1+
0.
#944000000
0$
0+
#946000000
1$
b0011111111111111 %
1+
b0011111111111111 4
b1 7
#948000000
0$
0+
#950000000
1$
1+
#952000000
0$
0+
#954000000
1$
1+
18
#956000000
0$
0+
#958000000
1!
0"
1$
1'
1)
1+
1-
1.
01
12
#960000000
0$
0+
#962000000
0!
1$
b0000000000000000 %
1+
02
b0000000000000000 4
b1111 7
